<svg width="320" height="568" viewBox="0 0 320 568" fill="none" xmlns="http://www.w3.org/2000/svg">
<rect x="-15.1236" y="0.965295" width="122.373" height="140.129" fill="#FFD833" stroke="white" stroke-width="1.93059"/>
<rect x="-15.1236" y="143.026" width="122.373" height="140.129" fill="#FFD833" stroke="white" stroke-width="1.93059"/>
<rect x="-15.1236" y="284.846" width="122.373" height="140.129" fill="#FFD833" stroke="white" stroke-width="1.93059"/>
<rect x="-15.1236" y="426.905" width="122.373" height="140.129" fill="#FFD833" stroke="white" stroke-width="1.93059"/>
<rect x="109.181" y="0.965295" width="122.373" height="140.129" fill="#FFD833" stroke="white" stroke-width="1.93059"/>
<rect x="233.484" y="0.965295" width="122.373" height="140.129" fill="#FFD833" stroke="white" stroke-width="1.93059"/>
<rect x="109.181" y="143.026" width="122.373" height="140.129" fill="#FFD833" stroke="white" stroke-width="1.93059"/>
<rect x="233.484" y="143.026" width="122.373" height="140.129" fill="#FFD833" stroke="white" stroke-width="1.93059"/>
<rect x="109.181" y="284.846" width="122.373" height="140.129" fill="#FFD833" stroke="white" stroke-width="1.93059"/>
<rect x="233.484" y="284.846" width="122.373" height="140.129" fill="#FFD833" stroke="white" stroke-width="1.93059"/>
<rect x="109.181" y="426.905" width="122.373" height="140.129" fill="#FFD833" stroke="white" stroke-width="1.93059"/>
<rect x="233.484" y="426.905" width="122.373" height="140.129" fill="#FFD833" stroke="white" stroke-width="1.93059"/>
</svg>
