<svg width="430" height="930" viewBox="0 0 430 930" fill="none" xmlns="http://www.w3.org/2000/svg">
<g clip-path="url(#clip0_1258_414)">
<rect width="430" height="930" fill="white"/>
<rect x="-7.14822" y="0.426973" width="108.337" height="108.337" fill="#FFD833" stroke="white" stroke-width="0.853946"/>
<rect x="-7.14822" y="109.618" width="108.337" height="108.337" fill="#FFD833" stroke="white" stroke-width="0.853946"/>
<rect x="-7.14822" y="218.624" width="108.337" height="108.337" fill="#FFD833" stroke="white" stroke-width="0.853946"/>
<rect x="-7.14822" y="327.816" width="108.337" height="108.337" fill="#FFD833" stroke="white" stroke-width="0.853946"/>
<rect x="102.042" y="0.426973" width="108.337" height="108.337" fill="#FFD833" stroke="white" stroke-width="0.853946"/>
<rect x="211.234" y="0.426973" width="108.337" height="108.337" fill="#FFD833" stroke="white" stroke-width="0.853946"/>
<rect x="320.424" y="0.426973" width="108.337" height="108.337" fill="#FFD833" stroke="white" stroke-width="0.853946"/>
<rect x="102.042" y="109.618" width="108.337" height="108.337" fill="#FFD833" stroke="white" stroke-width="0.853946"/>
<rect x="211.234" y="109.618" width="108.337" height="108.337" fill="#FFD833" stroke="white" stroke-width="0.853946"/>
<rect x="320.424" y="109.618" width="108.337" height="108.337" fill="#FFD833" stroke="white" stroke-width="0.853946"/>
<rect x="102.042" y="218.624" width="108.337" height="108.337" fill="#FFD833" stroke="white" stroke-width="0.853946"/>
<rect x="211.234" y="218.624" width="108.337" height="108.337" fill="#FFD833" stroke="white" stroke-width="0.853946"/>
<rect x="320.424" y="218.624" width="108.337" height="108.337" fill="#FFD833" stroke="white" stroke-width="0.853946"/>
<rect x="102.042" y="327.816" width="108.337" height="108.337" fill="#FFD833" stroke="white" stroke-width="0.853946"/>
<rect x="211.234" y="327.816" width="108.337" height="108.337" fill="#FFD833" stroke="white" stroke-width="0.853946"/>
<rect x="320.424" y="327.816" width="108.337" height="108.337" fill="#FFD833" stroke="white" stroke-width="0.853946"/>
<path d="M113.081 157.37H268.172C272.223 157.37 296.13 162.454 298.362 165.661C297.156 163.928 289.664 152.84 289.518 151.075C287.696 128.714 288.892 105.974 288.892 83.5106C288.892 81.8279 287.058 80.4512 284.815 80.4512H113.077C110.835 80.4512 109 81.8279 109 83.5106V154.311C109 155.993 110.835 157.37 113.077 157.37H113.081Z" fill="#F9F9F9" stroke="black" stroke-width="1.32697" stroke-miterlimit="10"/>
<path d="M133.473 115.222C133.261 115.222 133.084 115.186 132.942 115.116C132.813 115.057 132.712 114.951 132.642 114.797L128.165 103.863C128.047 103.58 128.024 103.379 128.095 103.261C128.177 103.143 128.348 103.02 128.608 102.89C128.773 102.807 128.914 102.766 129.032 102.766C129.162 102.754 129.274 102.79 129.368 102.872C129.475 102.943 129.563 103.067 129.634 103.244L133.473 112.993L137.295 103.403C137.366 103.214 137.442 103.067 137.525 102.961C137.619 102.843 137.737 102.778 137.879 102.766C138.02 102.742 138.197 102.79 138.41 102.908C138.74 103.061 138.905 103.232 138.905 103.421C138.905 103.598 138.858 103.798 138.763 104.022L134.305 114.78C134.246 114.921 134.146 115.027 134.004 115.098C133.862 115.181 133.686 115.222 133.473 115.222ZM142.377 115.328C141.799 115.328 141.245 115.216 140.714 114.992C140.195 114.768 139.729 114.461 139.316 114.072C138.904 113.671 138.579 113.205 138.343 112.674C138.107 112.143 137.989 111.565 137.989 110.94C137.989 110.327 138.102 109.761 138.326 109.242C138.55 108.711 138.862 108.245 139.263 107.844C139.664 107.443 140.124 107.13 140.643 106.906C141.174 106.67 141.74 106.552 142.342 106.552C143.156 106.552 143.887 106.747 144.536 107.136C145.196 107.514 145.721 108.033 146.111 108.693C146.5 109.354 146.694 110.097 146.694 110.922C146.694 111.571 146.576 112.167 146.341 112.709C146.105 113.24 145.786 113.7 145.385 114.09C144.984 114.479 144.524 114.785 144.005 115.01C143.486 115.222 142.944 115.328 142.377 115.328ZM142.342 113.789C142.837 113.789 143.297 113.665 143.722 113.417C144.147 113.169 144.489 112.827 144.748 112.391C145.008 111.955 145.137 111.459 145.137 110.905C145.137 110.35 145.014 109.861 144.766 109.436C144.53 109.012 144.2 108.681 143.775 108.445C143.35 108.21 142.867 108.092 142.324 108.092C141.805 108.092 141.333 108.215 140.909 108.463C140.496 108.711 140.16 109.047 139.9 109.472C139.653 109.896 139.529 110.38 139.529 110.922C139.529 111.489 139.659 111.99 139.918 112.426C140.178 112.851 140.52 113.187 140.944 113.435C141.381 113.671 141.847 113.789 142.342 113.789ZM148.67 115.222C148.446 115.222 148.275 115.186 148.157 115.116C148.05 115.057 147.98 114.968 147.944 114.85C147.909 114.732 147.891 114.591 147.891 114.426V107.437C147.891 107.272 147.909 107.13 147.944 107.012C147.98 106.894 148.05 106.806 148.157 106.747C148.275 106.688 148.451 106.658 148.687 106.658C148.912 106.658 149.077 106.694 149.183 106.765C149.289 106.824 149.36 106.912 149.395 107.03C149.431 107.148 149.448 107.295 149.448 107.472V114.443C149.448 114.608 149.431 114.75 149.395 114.868C149.36 114.986 149.283 115.074 149.165 115.133C149.059 115.192 148.894 115.222 148.67 115.222ZM148.67 104.535C148.41 104.535 148.216 104.5 148.086 104.429C147.956 104.347 147.868 104.235 147.82 104.093C147.785 103.951 147.767 103.786 147.767 103.598C147.767 103.409 147.791 103.25 147.838 103.12C147.885 102.978 147.974 102.878 148.104 102.819C148.233 102.748 148.428 102.713 148.687 102.713C148.935 102.713 149.124 102.748 149.254 102.819C149.383 102.89 149.466 102.996 149.501 103.138C149.548 103.279 149.572 103.444 149.572 103.633C149.572 103.822 149.548 103.987 149.501 104.128C149.466 104.258 149.383 104.358 149.254 104.429C149.124 104.5 148.929 104.535 148.67 104.535ZM154.744 115.257C154.131 115.257 153.553 115.157 153.01 114.956C152.479 114.756 152.007 114.467 151.595 114.09C151.194 113.712 150.875 113.264 150.639 112.745C150.415 112.214 150.303 111.612 150.303 110.94C150.303 110.268 150.415 109.672 150.639 109.153C150.875 108.622 151.194 108.168 151.595 107.791C151.996 107.413 152.462 107.124 152.992 106.924C153.535 106.723 154.107 106.623 154.709 106.623C155.11 106.623 155.505 106.688 155.894 106.818C156.283 106.936 156.625 107.095 156.92 107.295C157.227 107.484 157.445 107.685 157.575 107.897C157.693 108.05 157.775 108.18 157.823 108.286C157.882 108.381 157.887 108.493 157.84 108.622C157.793 108.717 157.728 108.805 157.646 108.888C157.563 108.959 157.48 109.018 157.398 109.065C157.186 109.23 156.973 109.253 156.761 109.135C156.631 109.006 156.484 108.888 156.319 108.782C156.165 108.664 156 108.558 155.823 108.463C155.646 108.369 155.463 108.298 155.275 108.251C155.098 108.192 154.909 108.162 154.709 108.162C154.154 108.162 153.665 108.28 153.24 108.516C152.815 108.74 152.485 109.065 152.249 109.489C152.025 109.902 151.913 110.386 151.913 110.94C151.913 111.495 152.025 111.978 152.249 112.391C152.485 112.804 152.81 113.128 153.222 113.364C153.647 113.6 154.131 113.718 154.673 113.718C154.921 113.718 155.157 113.688 155.381 113.629C155.617 113.559 155.835 113.47 156.036 113.364C156.236 113.246 156.401 113.122 156.531 112.993C156.649 112.91 156.749 112.839 156.832 112.78C156.914 112.721 157.015 112.692 157.132 112.692C157.227 112.692 157.327 112.733 157.433 112.816C157.539 112.886 157.651 112.998 157.769 113.152C157.864 113.258 157.917 113.37 157.929 113.488C157.952 113.606 157.935 113.718 157.876 113.824C157.817 113.93 157.722 114.036 157.593 114.143C157.404 114.331 157.15 114.514 156.832 114.691C156.525 114.856 156.189 114.992 155.823 115.098C155.458 115.204 155.098 115.257 154.744 115.257ZM159.961 115.222C159.737 115.222 159.566 115.186 159.448 115.116C159.342 115.057 159.271 114.968 159.236 114.85C159.201 114.732 159.183 114.591 159.183 114.426V107.437C159.183 107.272 159.201 107.13 159.236 107.012C159.271 106.894 159.342 106.806 159.448 106.747C159.566 106.688 159.743 106.658 159.979 106.658C160.203 106.658 160.368 106.694 160.474 106.765C160.581 106.824 160.651 106.912 160.687 107.03C160.722 107.148 160.74 107.295 160.74 107.472V114.443C160.74 114.608 160.722 114.75 160.687 114.868C160.651 114.986 160.575 115.074 160.457 115.133C160.351 115.192 160.185 115.222 159.961 115.222ZM159.961 104.535C159.702 104.535 159.507 104.5 159.377 104.429C159.248 104.347 159.159 104.235 159.112 104.093C159.077 103.951 159.059 103.786 159.059 103.598C159.059 103.409 159.083 103.25 159.13 103.12C159.177 102.978 159.265 102.878 159.395 102.819C159.525 102.748 159.72 102.713 159.979 102.713C160.227 102.713 160.415 102.748 160.545 102.819C160.675 102.89 160.758 102.996 160.793 103.138C160.84 103.279 160.864 103.444 160.864 103.633C160.864 103.822 160.84 103.987 160.793 104.128C160.758 104.258 160.675 104.358 160.545 104.429C160.415 104.5 160.221 104.535 159.961 104.535ZM170.031 115.222C169.477 115.222 169.005 115.169 168.616 115.063C168.238 114.956 167.926 114.791 167.678 114.567C167.43 114.343 167.253 114.054 167.147 113.7C167.041 113.335 166.988 112.886 166.988 112.356V104.535C166.988 104.37 167.006 104.229 167.041 104.111C167.077 103.993 167.147 103.904 167.253 103.845C167.36 103.775 167.525 103.739 167.749 103.739C167.973 103.739 168.144 103.775 168.262 103.845C168.38 103.904 168.457 103.993 168.492 104.111C168.527 104.217 168.545 104.352 168.545 104.518V112.356C168.545 112.662 168.569 112.91 168.616 113.099C168.675 113.276 168.757 113.411 168.864 113.506C168.981 113.6 169.135 113.659 169.324 113.683C169.512 113.706 169.742 113.718 170.014 113.718C170.202 113.718 170.356 113.736 170.474 113.771C170.592 113.806 170.68 113.877 170.739 113.983C170.798 114.09 170.827 114.249 170.827 114.461C170.827 114.685 170.792 114.856 170.721 114.974C170.662 115.08 170.568 115.145 170.438 115.169C170.32 115.204 170.185 115.222 170.031 115.222ZM166.068 106.853L167.767 106.871L170.226 106.835C170.391 106.835 170.533 106.853 170.651 106.888C170.768 106.912 170.857 106.983 170.916 107.101C170.987 107.207 171.022 107.372 171.022 107.596C171.022 107.82 170.993 107.991 170.934 108.109C170.875 108.215 170.786 108.286 170.668 108.322C170.55 108.357 170.409 108.375 170.244 108.375L167.82 108.339L166.033 108.357C165.785 108.357 165.614 108.298 165.52 108.18C165.437 108.062 165.396 107.867 165.396 107.596C165.396 107.337 165.449 107.148 165.555 107.03C165.661 106.912 165.832 106.853 166.068 106.853ZM175.924 115.328C175.346 115.328 174.792 115.216 174.261 114.992C173.742 114.768 173.276 114.461 172.863 114.072C172.45 113.671 172.126 113.205 171.89 112.674C171.654 112.143 171.536 111.565 171.536 110.94C171.536 110.327 171.648 109.761 171.872 109.242C172.096 108.711 172.409 108.245 172.81 107.844C173.211 107.443 173.671 107.13 174.19 106.906C174.721 106.67 175.287 106.552 175.889 106.552C176.702 106.552 177.434 106.747 178.082 107.136C178.743 107.514 179.268 108.033 179.657 108.693C180.046 109.354 180.241 110.097 180.241 110.922C180.241 111.571 180.123 112.167 179.887 112.709C179.651 113.24 179.333 113.7 178.932 114.09C178.531 114.479 178.071 114.785 177.552 115.01C177.033 115.222 176.49 115.328 175.924 115.328ZM175.889 113.789C176.384 113.789 176.844 113.665 177.269 113.417C177.693 113.169 178.035 112.827 178.295 112.391C178.554 111.955 178.684 111.459 178.684 110.905C178.684 110.35 178.56 109.861 178.312 109.436C178.077 109.012 177.746 108.681 177.322 108.445C176.897 108.21 176.413 108.092 175.871 108.092C175.352 108.092 174.88 108.215 174.455 108.463C174.043 108.711 173.706 109.047 173.447 109.472C173.199 109.896 173.075 110.38 173.075 110.922C173.075 111.489 173.205 111.99 173.465 112.426C173.724 112.851 174.066 113.187 174.491 113.435C174.927 113.671 175.393 113.789 175.889 113.789ZM184.746 115.24C184.227 115.24 183.744 115.145 183.296 114.956C182.859 114.768 182.476 114.502 182.145 114.16C181.815 113.818 181.556 113.405 181.367 112.922C181.19 112.438 181.102 111.89 181.102 111.276V107.437C181.102 107.272 181.119 107.13 181.155 107.012C181.19 106.894 181.261 106.806 181.367 106.747C181.485 106.676 181.656 106.641 181.88 106.641C182.104 106.641 182.269 106.676 182.375 106.747C182.493 106.818 182.57 106.912 182.605 107.03C182.641 107.148 182.659 107.29 182.659 107.455V111.294C182.659 111.778 182.741 112.208 182.906 112.586C183.071 112.951 183.319 113.234 183.649 113.435C183.991 113.635 184.404 113.736 184.888 113.736C185.383 113.736 185.808 113.635 186.162 113.435C186.527 113.234 186.805 112.951 186.993 112.586C187.194 112.208 187.294 111.778 187.294 111.294V107.437C187.294 107.272 187.312 107.13 187.347 107.012C187.383 106.894 187.453 106.806 187.56 106.747C187.677 106.676 187.849 106.641 188.073 106.641C188.297 106.641 188.462 106.676 188.568 106.747C188.686 106.818 188.757 106.912 188.78 107.03C188.816 107.148 188.833 107.29 188.833 107.455V114.479C188.833 114.62 188.816 114.75 188.78 114.868C188.757 114.974 188.686 115.057 188.568 115.116C188.462 115.175 188.297 115.204 188.073 115.204C187.907 115.204 187.772 115.186 187.666 115.151C187.571 115.116 187.501 115.069 187.453 115.01C187.406 114.951 187.371 114.886 187.347 114.815C187.335 114.732 187.33 114.65 187.33 114.567L187.4 113.806C187.282 113.948 187.141 114.101 186.976 114.266C186.811 114.432 186.616 114.591 186.392 114.744C186.179 114.886 185.938 115.004 185.666 115.098C185.395 115.192 185.088 115.24 184.746 115.24ZM194.39 115.222C193.835 115.222 193.364 115.169 192.974 115.063C192.597 114.956 192.284 114.791 192.037 114.567C191.789 114.343 191.612 114.054 191.506 113.7C191.4 113.335 191.347 112.886 191.347 112.356V104.535C191.347 104.37 191.364 104.229 191.4 104.111C191.435 103.993 191.506 103.904 191.612 103.845C191.718 103.775 191.883 103.739 192.107 103.739C192.331 103.739 192.502 103.775 192.62 103.845C192.738 103.904 192.815 103.993 192.85 104.111C192.886 104.217 192.904 104.352 192.904 104.518V112.356C192.904 112.662 192.927 112.91 192.974 113.099C193.033 113.276 193.116 113.411 193.222 113.506C193.34 113.6 193.493 113.659 193.682 113.683C193.871 113.706 194.101 113.718 194.372 113.718C194.561 113.718 194.714 113.736 194.832 113.771C194.95 113.806 195.038 113.877 195.097 113.983C195.156 114.09 195.186 114.249 195.186 114.461C195.186 114.685 195.151 114.856 195.08 114.974C195.021 115.08 194.926 115.145 194.797 115.169C194.679 115.204 194.543 115.222 194.39 115.222ZM190.426 106.853L192.125 106.871L194.584 106.835C194.749 106.835 194.891 106.853 195.009 106.888C195.127 106.912 195.215 106.983 195.274 107.101C195.345 107.207 195.381 107.372 195.381 107.596C195.381 107.82 195.351 107.991 195.292 108.109C195.233 108.215 195.145 108.286 195.027 108.322C194.909 108.357 194.767 108.375 194.602 108.375L192.178 108.339L190.391 108.357C190.143 108.357 189.972 108.298 189.878 108.18C189.795 108.062 189.754 107.867 189.754 107.596C189.754 107.337 189.807 107.148 189.913 107.03C190.02 106.912 190.191 106.853 190.426 106.853ZM203.884 115.257C203.271 115.257 202.693 115.157 202.15 114.956C201.62 114.756 201.148 114.467 200.735 114.09C200.334 113.712 200.016 113.264 199.78 112.745C199.555 112.214 199.443 111.612 199.443 110.94C199.443 110.268 199.555 109.672 199.78 109.153C200.016 108.622 200.334 108.168 200.735 107.791C201.136 107.413 201.602 107.124 202.133 106.924C202.675 106.723 203.247 106.623 203.849 106.623C204.25 106.623 204.645 106.688 205.034 106.818C205.424 106.936 205.766 107.095 206.061 107.295C206.367 107.484 206.586 107.685 206.715 107.897C206.833 108.05 206.916 108.18 206.963 108.286C207.022 108.381 207.028 108.493 206.981 108.622C206.933 108.717 206.869 108.805 206.786 108.888C206.703 108.959 206.621 109.018 206.538 109.065C206.326 109.23 206.114 109.253 205.901 109.135C205.772 109.006 205.624 108.888 205.459 108.782C205.306 108.664 205.141 108.558 204.964 108.463C204.787 108.369 204.604 108.298 204.415 108.251C204.238 108.192 204.05 108.162 203.849 108.162C203.295 108.162 202.805 108.28 202.38 108.516C201.956 108.74 201.626 109.065 201.39 109.489C201.166 109.902 201.054 110.386 201.054 110.94C201.054 111.495 201.166 111.978 201.39 112.391C201.626 112.804 201.95 113.128 202.363 113.364C202.787 113.6 203.271 113.718 203.814 113.718C204.061 113.718 204.297 113.688 204.521 113.629C204.757 113.559 204.975 113.47 205.176 113.364C205.376 113.246 205.542 113.122 205.671 112.993C205.789 112.91 205.89 112.839 205.972 112.78C206.055 112.721 206.155 112.692 206.273 112.692C206.367 112.692 206.468 112.733 206.574 112.816C206.68 112.886 206.792 112.998 206.91 113.152C207.004 113.258 207.057 113.37 207.069 113.488C207.093 113.606 207.075 113.718 207.016 113.824C206.957 113.93 206.863 114.036 206.733 114.143C206.544 114.331 206.291 114.514 205.972 114.691C205.665 114.856 205.329 114.992 204.964 115.098C204.598 115.204 204.238 115.257 203.884 115.257ZM212.269 115.31C211.561 115.31 210.93 115.192 210.376 114.956C209.821 114.721 209.349 114.402 208.96 114.001C208.583 113.588 208.294 113.116 208.093 112.586C207.893 112.055 207.792 111.483 207.792 110.869C207.792 110.056 207.981 109.33 208.359 108.693C208.736 108.056 209.255 107.555 209.916 107.189C210.588 106.812 211.355 106.623 212.216 106.623C212.805 106.623 213.33 106.717 213.79 106.906C214.262 107.083 214.663 107.325 214.994 107.632C215.324 107.938 215.577 108.28 215.754 108.658C215.931 109.035 216.02 109.413 216.02 109.79C216.02 110.392 215.878 110.816 215.595 111.064C215.312 111.3 214.964 111.418 214.551 111.418H209.438C209.426 111.937 209.562 112.385 209.845 112.763C210.14 113.128 210.505 113.411 210.942 113.612C211.39 113.812 211.838 113.913 212.286 113.913C212.617 113.913 212.9 113.895 213.136 113.859C213.372 113.824 213.578 113.777 213.755 113.718C213.932 113.659 214.085 113.6 214.215 113.541C214.345 113.482 214.457 113.423 214.551 113.364C214.657 113.305 214.758 113.264 214.852 113.24C214.958 113.217 215.058 113.228 215.153 113.276C215.259 113.311 215.341 113.388 215.4 113.506C215.471 113.6 215.518 113.688 215.542 113.771C215.566 113.854 215.577 113.942 215.577 114.036C215.577 114.202 215.436 114.384 215.153 114.585C214.87 114.785 214.475 114.956 213.967 115.098C213.472 115.24 212.906 115.31 212.269 115.31ZM209.438 110.374H213.879C214.103 110.374 214.268 110.344 214.374 110.286C214.492 110.227 214.551 110.067 214.551 109.808C214.551 109.478 214.451 109.183 214.25 108.923C214.05 108.652 213.773 108.434 213.419 108.269C213.077 108.103 212.682 108.021 212.233 108.021C211.714 108.021 211.237 108.127 210.8 108.339C210.376 108.54 210.039 108.817 209.792 109.171C209.544 109.525 209.426 109.926 209.438 110.374ZM224.567 115.151C224.024 115.151 223.511 115.051 223.028 114.85C222.556 114.638 222.137 114.343 221.771 113.966C221.406 113.588 221.117 113.14 220.905 112.621C220.704 112.102 220.604 111.536 220.604 110.922C220.604 110.309 220.704 109.737 220.905 109.206C221.117 108.675 221.406 108.221 221.771 107.844C222.137 107.455 222.556 107.154 223.028 106.942C223.511 106.729 224.024 106.623 224.567 106.623C225.145 106.623 225.664 106.729 226.124 106.942C226.596 107.142 226.997 107.437 227.327 107.826C227.657 108.204 227.911 108.652 228.088 109.171C228.277 109.69 228.371 110.256 228.371 110.869C228.371 111.495 228.282 112.067 228.106 112.586C227.929 113.105 227.669 113.559 227.327 113.948C226.997 114.325 226.596 114.62 226.124 114.833C225.664 115.045 225.145 115.151 224.567 115.151ZM224.797 113.7C225.281 113.7 225.717 113.582 226.106 113.346C226.507 113.099 226.826 112.763 227.062 112.338C227.298 111.913 227.416 111.43 227.416 110.887C227.416 110.344 227.298 109.867 227.062 109.454C226.838 109.041 226.525 108.717 226.124 108.481C225.735 108.245 225.286 108.127 224.779 108.127C224.296 108.127 223.847 108.245 223.435 108.481C223.034 108.717 222.715 109.041 222.479 109.454C222.255 109.867 222.143 110.344 222.143 110.887C222.143 111.43 222.261 111.913 222.497 112.338C222.733 112.763 223.051 113.099 223.452 113.346C223.853 113.582 224.302 113.7 224.797 113.7ZM228.229 118.707C228.005 118.707 227.834 118.672 227.716 118.601C227.61 118.542 227.539 118.448 227.504 118.318C227.469 118.2 227.451 118.059 227.451 117.893V107.225C227.475 107.083 227.516 106.971 227.575 106.888C227.634 106.806 227.716 106.747 227.822 106.712C227.94 106.676 228.082 106.658 228.247 106.658C228.483 106.658 228.654 106.694 228.76 106.765C228.878 106.824 228.949 106.912 228.973 107.03C229.008 107.148 229.026 107.29 229.026 107.455V117.911C229.026 118.076 229.008 118.218 228.973 118.336C228.937 118.454 228.86 118.542 228.743 118.601C228.636 118.672 228.465 118.707 228.229 118.707ZM233.934 115.24C233.415 115.24 232.932 115.145 232.483 114.956C232.047 114.768 231.664 114.502 231.333 114.16C231.003 113.818 230.744 113.405 230.555 112.922C230.378 112.438 230.289 111.89 230.289 111.276V107.437C230.289 107.272 230.307 107.13 230.342 107.012C230.378 106.894 230.449 106.806 230.555 106.747C230.673 106.676 230.844 106.641 231.068 106.641C231.292 106.641 231.457 106.676 231.563 106.747C231.681 106.818 231.758 106.912 231.793 107.03C231.829 107.148 231.846 107.29 231.846 107.455V111.294C231.846 111.778 231.929 112.208 232.094 112.586C232.259 112.951 232.507 113.234 232.837 113.435C233.179 113.635 233.592 113.736 234.076 113.736C234.571 113.736 234.996 113.635 235.35 113.435C235.715 113.234 235.992 112.951 236.181 112.586C236.382 112.208 236.482 111.778 236.482 111.294V107.437C236.482 107.272 236.5 107.13 236.535 107.012C236.57 106.894 236.641 106.806 236.747 106.747C236.865 106.676 237.036 106.641 237.26 106.641C237.485 106.641 237.65 106.676 237.756 106.747C237.874 106.818 237.945 106.912 237.968 107.03C238.004 107.148 238.021 107.29 238.021 107.455V114.479C238.021 114.62 238.004 114.75 237.968 114.868C237.945 114.974 237.874 115.057 237.756 115.116C237.65 115.175 237.485 115.204 237.26 115.204C237.095 115.204 236.96 115.186 236.854 115.151C236.759 115.116 236.688 115.069 236.641 115.01C236.594 114.951 236.559 114.886 236.535 114.815C236.523 114.732 236.517 114.65 236.517 114.567L236.588 113.806C236.47 113.948 236.329 114.101 236.163 114.266C235.998 114.432 235.804 114.591 235.58 114.744C235.367 114.886 235.125 115.004 234.854 115.098C234.583 115.192 234.276 115.24 233.934 115.24ZM239.172 107.525C239.172 107.525 239.154 107.52 239.119 107.508C239.084 107.496 239.048 107.466 239.013 107.419C238.977 107.36 238.96 107.266 238.96 107.136C238.96 106.947 238.983 106.829 239.03 106.782C239.089 106.735 239.131 106.712 239.154 106.712C239.154 106.7 239.219 106.647 239.349 106.552C239.479 106.446 239.555 106.263 239.579 106.004C239.485 105.992 239.402 105.968 239.331 105.933C239.26 105.898 239.196 105.85 239.137 105.792C239.042 105.709 238.989 105.603 238.977 105.473C238.966 105.331 238.96 105.202 238.96 105.084C238.96 104.93 238.971 104.783 238.995 104.641C239.019 104.5 239.095 104.388 239.225 104.305C239.355 104.211 239.579 104.164 239.897 104.164C240.251 104.164 240.499 104.235 240.641 104.376C240.723 104.459 240.77 104.565 240.782 104.695C240.806 104.824 240.817 104.96 240.817 105.101C240.817 105.172 240.817 105.237 240.817 105.296C240.817 105.355 240.806 105.42 240.782 105.491C240.758 105.845 240.67 106.181 240.517 106.499C240.363 106.806 240.169 107.054 239.933 107.242C239.697 107.431 239.443 107.525 239.172 107.525ZM242.592 115.222C242.368 115.222 242.197 115.186 242.079 115.116C241.973 115.057 241.902 114.968 241.867 114.85C241.831 114.732 241.814 114.591 241.814 114.426V107.437C241.814 107.272 241.831 107.13 241.867 107.012C241.902 106.894 241.973 106.806 242.079 106.747C242.197 106.688 242.374 106.658 242.61 106.658C242.834 106.658 242.999 106.694 243.105 106.765C243.211 106.824 243.282 106.912 243.317 107.03C243.353 107.148 243.37 107.295 243.37 107.472V114.443C243.37 114.608 243.353 114.75 243.317 114.868C243.282 114.986 243.205 115.074 243.087 115.133C242.981 115.192 242.816 115.222 242.592 115.222ZM242.592 104.535C242.333 104.535 242.138 104.5 242.008 104.429C241.878 104.347 241.79 104.235 241.743 104.093C241.707 103.951 241.69 103.786 241.69 103.598C241.69 103.409 241.713 103.25 241.76 103.12C241.808 102.978 241.896 102.878 242.026 102.819C242.156 102.748 242.35 102.713 242.61 102.713C242.857 102.713 243.046 102.748 243.176 102.819C243.306 102.89 243.388 102.996 243.424 103.138C243.471 103.279 243.494 103.444 243.494 103.633C243.494 103.822 243.471 103.987 243.424 104.128C243.388 104.258 243.306 104.358 243.176 104.429C243.046 104.5 242.851 104.535 242.592 104.535ZM247.771 115.222C247.393 115.222 247.051 115.186 246.745 115.116C246.45 115.057 246.19 114.956 245.966 114.815C245.742 114.673 245.553 114.491 245.4 114.266C245.258 114.042 245.152 113.771 245.081 113.453C245.023 113.134 244.993 112.763 244.993 112.338V103.491C244.993 103.314 245.005 103.167 245.028 103.049C245.064 102.931 245.14 102.843 245.258 102.784C245.376 102.713 245.541 102.678 245.754 102.678C245.99 102.678 246.161 102.707 246.267 102.766C246.385 102.825 246.462 102.913 246.497 103.031C246.532 103.149 246.55 103.291 246.55 103.456V112.32C246.55 112.556 246.574 112.763 246.621 112.939C246.668 113.105 246.739 113.246 246.833 113.364C246.939 113.482 247.069 113.565 247.222 113.612C247.376 113.659 247.558 113.683 247.771 113.683C247.912 113.683 248.03 113.7 248.125 113.736C248.231 113.771 248.313 113.842 248.372 113.948C248.431 114.054 248.461 114.219 248.461 114.443C248.461 114.679 248.431 114.856 248.372 114.974C248.313 115.08 248.231 115.145 248.125 115.169C248.03 115.204 247.912 115.222 247.771 115.222ZM257.038 115.222C256.483 115.222 256.012 115.169 255.622 115.063C255.245 114.956 254.932 114.791 254.685 114.567C254.437 114.343 254.26 114.054 254.154 113.7C254.048 113.335 253.995 112.886 253.995 112.356V104.535C253.995 104.37 254.012 104.229 254.048 104.111C254.083 103.993 254.154 103.904 254.26 103.845C254.366 103.775 254.531 103.739 254.755 103.739C254.98 103.739 255.151 103.775 255.269 103.845C255.386 103.904 255.463 103.993 255.499 104.111C255.534 104.217 255.552 104.352 255.552 104.518V112.356C255.552 112.662 255.575 112.91 255.622 113.099C255.681 113.276 255.764 113.411 255.87 113.506C255.988 113.6 256.141 113.659 256.33 113.683C256.519 113.706 256.749 113.718 257.02 113.718C257.209 113.718 257.362 113.736 257.48 113.771C257.598 113.806 257.687 113.877 257.746 113.983C257.805 114.09 257.834 114.249 257.834 114.461C257.834 114.685 257.799 114.856 257.728 114.974C257.669 115.08 257.574 115.145 257.445 115.169C257.327 115.204 257.191 115.222 257.038 115.222ZM253.075 106.853L254.773 106.871L257.232 106.835C257.398 106.835 257.539 106.853 257.657 106.888C257.775 106.912 257.863 106.983 257.922 107.101C257.993 107.207 258.029 107.372 258.029 107.596C258.029 107.82 257.999 107.991 257.94 108.109C257.881 108.215 257.793 108.286 257.675 108.322C257.557 108.357 257.415 108.375 257.25 108.375L254.826 108.339L253.039 108.357C252.792 108.357 252.62 108.298 252.526 108.18C252.444 108.062 252.402 107.867 252.402 107.596C252.402 107.337 252.455 107.148 252.561 107.03C252.668 106.912 252.839 106.853 253.075 106.853ZM263.09 115.31C262.382 115.31 261.751 115.192 261.197 114.956C260.642 114.721 260.17 114.402 259.781 114.001C259.404 113.588 259.115 113.116 258.914 112.586C258.714 112.055 258.613 111.483 258.613 110.869C258.613 110.056 258.802 109.33 259.18 108.693C259.557 108.056 260.076 107.555 260.736 107.189C261.409 106.812 262.176 106.623 263.037 106.623C263.626 106.623 264.151 106.717 264.611 106.906C265.083 107.083 265.484 107.325 265.814 107.632C266.145 107.938 266.398 108.28 266.575 108.658C266.752 109.035 266.841 109.413 266.841 109.79C266.841 110.392 266.699 110.816 266.416 111.064C266.133 111.3 265.785 111.418 265.372 111.418H260.259C260.247 111.937 260.383 112.385 260.666 112.763C260.961 113.128 261.326 113.411 261.763 113.612C262.211 113.812 262.659 113.913 263.107 113.913C263.438 113.913 263.721 113.895 263.957 113.859C264.193 113.824 264.399 113.777 264.576 113.718C264.753 113.659 264.906 113.6 265.036 113.541C265.166 113.482 265.278 113.423 265.372 113.364C265.478 113.305 265.578 113.264 265.673 113.24C265.779 113.217 265.879 113.228 265.974 113.276C266.08 113.311 266.162 113.388 266.221 113.506C266.292 113.6 266.339 113.688 266.363 113.771C266.386 113.854 266.398 113.942 266.398 114.036C266.398 114.202 266.257 114.384 265.974 114.585C265.691 114.785 265.295 114.956 264.788 115.098C264.293 115.24 263.727 115.31 263.09 115.31ZM260.259 110.374H264.7C264.924 110.374 265.089 110.344 265.195 110.286C265.313 110.227 265.372 110.067 265.372 109.808C265.372 109.478 265.272 109.183 265.071 108.923C264.871 108.652 264.594 108.434 264.24 108.269C263.898 108.103 263.502 108.021 263.054 108.021C262.535 108.021 262.058 108.127 261.621 108.339C261.197 108.54 260.86 108.817 260.613 109.171C260.365 109.525 260.247 109.926 260.259 110.374ZM129.935 136.24C129.722 136.24 129.557 136.204 129.439 136.133C129.333 136.063 129.262 135.968 129.227 135.85C129.192 135.721 129.174 135.573 129.174 135.408V126.526C129.174 126.054 129.227 125.641 129.333 125.288C129.439 124.934 129.616 124.639 129.864 124.403C130.112 124.167 130.424 123.99 130.802 123.872C131.191 123.742 131.669 123.678 132.235 123.678C132.388 123.678 132.524 123.695 132.642 123.731C132.771 123.754 132.866 123.825 132.925 123.943C132.996 124.049 133.031 124.214 133.031 124.438C133.031 124.662 132.996 124.833 132.925 124.951C132.854 125.058 132.76 125.128 132.642 125.164C132.524 125.199 132.382 125.217 132.217 125.217C131.946 125.217 131.71 125.229 131.509 125.252C131.321 125.276 131.173 125.329 131.067 125.411C130.961 125.494 130.878 125.624 130.819 125.801C130.772 125.966 130.748 126.196 130.748 126.491V135.461C130.748 135.614 130.725 135.75 130.678 135.868C130.642 135.986 130.566 136.074 130.448 136.133C130.342 136.204 130.171 136.24 129.935 136.24ZM128.271 127.853L129.97 127.871L132.429 127.835C132.594 127.835 132.736 127.853 132.854 127.888C132.972 127.912 133.06 127.983 133.119 128.101C133.19 128.207 133.226 128.372 133.226 128.596C133.226 128.82 133.196 128.991 133.137 129.109C133.078 129.215 132.99 129.286 132.872 129.322C132.754 129.357 132.612 129.375 132.447 129.375L130.023 129.339L128.236 129.357C127.988 129.357 127.817 129.298 127.723 129.18C127.64 129.062 127.599 128.867 127.599 128.596C127.599 128.337 127.652 128.148 127.758 128.03C127.865 127.912 128.036 127.853 128.271 127.853ZM140.954 136.204C140.695 136.204 140.506 136.151 140.388 136.045C140.282 135.939 140.217 135.774 140.193 135.55L140.264 134.665C140.146 134.854 139.963 135.072 139.716 135.32C139.468 135.555 139.144 135.768 138.743 135.956C138.342 136.133 137.852 136.222 137.274 136.222C136.708 136.222 136.177 136.11 135.682 135.886C135.198 135.662 134.768 135.349 134.39 134.948C134.024 134.547 133.735 134.087 133.523 133.568C133.323 133.049 133.222 132.495 133.222 131.905C133.222 131.327 133.323 130.784 133.523 130.277C133.735 129.758 134.03 129.304 134.408 128.915C134.785 128.525 135.216 128.219 135.699 127.995C136.195 127.771 136.72 127.658 137.274 127.658C137.793 127.658 138.235 127.729 138.601 127.871C138.967 128.001 139.279 128.177 139.539 128.402C139.81 128.614 140.046 128.856 140.246 129.127L140.211 128.384C140.199 128.124 140.252 127.942 140.37 127.835C140.5 127.717 140.701 127.658 140.972 127.658C141.196 127.658 141.355 127.694 141.45 127.765C141.556 127.835 141.627 127.936 141.662 128.065C141.697 128.195 141.715 128.354 141.715 128.543V135.373C141.715 135.538 141.697 135.685 141.662 135.815C141.627 135.945 141.556 136.039 141.45 136.098C141.343 136.169 141.178 136.204 140.954 136.204ZM137.539 134.736C138.011 134.736 138.442 134.612 138.831 134.364C139.232 134.116 139.545 133.786 139.769 133.373C140.005 132.949 140.123 132.465 140.123 131.922C140.123 131.368 139.999 130.884 139.751 130.472C139.515 130.047 139.197 129.717 138.796 129.481C138.406 129.233 137.976 129.109 137.504 129.109C136.95 129.109 136.466 129.239 136.053 129.499C135.652 129.746 135.334 130.082 135.098 130.507C134.862 130.932 134.744 131.415 134.744 131.958C134.744 132.489 134.862 132.966 135.098 133.391C135.334 133.804 135.658 134.134 136.071 134.382C136.496 134.618 136.985 134.736 137.539 134.736ZM146.621 136.24C146.102 136.24 145.618 136.145 145.17 135.956C144.734 135.768 144.35 135.502 144.02 135.16C143.69 134.818 143.43 134.405 143.242 133.922C143.065 133.438 142.976 132.89 142.976 132.276V128.437C142.976 128.272 142.994 128.13 143.029 128.012C143.065 127.894 143.136 127.806 143.242 127.747C143.36 127.676 143.531 127.641 143.755 127.641C143.979 127.641 144.144 127.676 144.25 127.747C144.368 127.818 144.445 127.912 144.48 128.03C144.516 128.148 144.533 128.29 144.533 128.455V132.294C144.533 132.778 144.616 133.208 144.781 133.586C144.946 133.951 145.194 134.234 145.524 134.435C145.866 134.635 146.279 134.736 146.763 134.736C147.258 134.736 147.683 134.635 148.036 134.435C148.402 134.234 148.679 133.951 148.868 133.586C149.069 133.208 149.169 132.778 149.169 132.294V128.437C149.169 128.272 149.187 128.13 149.222 128.012C149.257 127.894 149.328 127.806 149.434 127.747C149.552 127.676 149.723 127.641 149.947 127.641C150.171 127.641 150.337 127.676 150.443 127.747C150.561 127.818 150.631 127.912 150.655 128.03C150.69 128.148 150.708 128.29 150.708 128.455V135.479C150.708 135.62 150.69 135.75 150.655 135.868C150.631 135.974 150.561 136.057 150.443 136.116C150.337 136.175 150.171 136.204 149.947 136.204C149.782 136.204 149.647 136.186 149.54 136.151C149.446 136.116 149.375 136.069 149.328 136.01C149.281 135.951 149.246 135.886 149.222 135.815C149.21 135.732 149.204 135.65 149.204 135.567L149.275 134.806C149.157 134.948 149.016 135.101 148.85 135.266C148.685 135.432 148.491 135.591 148.267 135.744C148.054 135.886 147.812 136.004 147.541 136.098C147.27 136.192 146.963 136.24 146.621 136.24ZM156.264 136.222C155.71 136.222 155.238 136.169 154.849 136.063C154.472 135.956 154.159 135.791 153.911 135.567C153.664 135.343 153.487 135.054 153.38 134.7C153.274 134.335 153.221 133.886 153.221 133.356V125.535C153.221 125.37 153.239 125.229 153.274 125.111C153.31 124.993 153.38 124.904 153.487 124.845C153.593 124.775 153.758 124.739 153.982 124.739C154.206 124.739 154.377 124.775 154.495 124.845C154.613 124.904 154.69 124.993 154.725 125.111C154.761 125.217 154.778 125.352 154.778 125.518V133.356C154.778 133.662 154.802 133.91 154.849 134.099C154.908 134.276 154.991 134.411 155.097 134.506C155.215 134.6 155.368 134.659 155.557 134.683C155.745 134.706 155.975 134.718 156.247 134.718C156.435 134.718 156.589 134.736 156.707 134.771C156.825 134.806 156.913 134.877 156.972 134.983C157.031 135.09 157.061 135.249 157.061 135.461C157.061 135.685 157.025 135.856 156.954 135.974C156.895 136.08 156.801 136.145 156.671 136.169C156.553 136.204 156.418 136.222 156.264 136.222ZM152.301 127.853L154 127.871L156.459 127.835C156.624 127.835 156.766 127.853 156.884 127.888C157.002 127.912 157.09 127.983 157.149 128.101C157.22 128.207 157.255 128.372 157.255 128.596C157.255 128.82 157.226 128.991 157.167 129.109C157.108 129.215 157.019 129.286 156.901 129.322C156.783 129.357 156.642 129.375 156.477 129.375L154.053 129.339L152.266 129.357C152.018 129.357 151.847 129.298 151.753 129.18C151.67 129.062 151.629 128.867 151.629 128.596C151.629 128.337 151.682 128.148 151.788 128.03C151.894 127.912 152.065 127.853 152.301 127.853ZM166.509 136.151C165.931 136.151 165.406 136.045 164.934 135.833C164.463 135.62 164.062 135.325 163.731 134.948C163.401 134.559 163.142 134.105 162.953 133.586C162.776 133.067 162.693 132.495 162.705 131.869C162.705 131.256 162.794 130.69 162.971 130.171C163.147 129.652 163.401 129.204 163.731 128.826C164.073 128.437 164.474 128.142 164.934 127.942C165.406 127.729 165.931 127.623 166.509 127.623C167.052 127.623 167.559 127.729 168.031 127.942C168.514 128.154 168.933 128.455 169.287 128.844C169.653 129.221 169.936 129.675 170.136 130.206C170.348 130.737 170.455 131.309 170.455 131.922C170.455 132.536 170.348 133.102 170.136 133.621C169.936 134.14 169.653 134.588 169.287 134.966C168.933 135.343 168.514 135.638 168.031 135.85C167.559 136.051 167.052 136.151 166.509 136.151ZM162.829 139.707C162.605 139.707 162.434 139.672 162.316 139.601C162.21 139.542 162.133 139.454 162.086 139.336C162.05 139.218 162.033 139.076 162.033 138.911V128.455C162.033 128.29 162.05 128.148 162.086 128.03C162.121 127.912 162.192 127.824 162.298 127.765C162.416 127.694 162.587 127.658 162.811 127.658C163.071 127.658 163.26 127.7 163.377 127.782C163.507 127.865 163.584 128.012 163.607 128.225V138.893C163.619 139.059 163.607 139.2 163.572 139.318C163.537 139.448 163.46 139.542 163.342 139.601C163.236 139.672 163.065 139.707 162.829 139.707ZM166.279 134.7C166.775 134.7 167.223 134.582 167.624 134.346C168.025 134.099 168.337 133.763 168.562 133.338C168.797 132.913 168.915 132.43 168.915 131.887C168.915 131.333 168.797 130.849 168.562 130.436C168.337 130.023 168.025 129.705 167.624 129.481C167.235 129.245 166.786 129.127 166.279 129.127C165.784 129.127 165.335 129.245 164.934 129.481C164.545 129.717 164.233 130.041 163.997 130.454C163.773 130.867 163.661 131.344 163.661 131.887C163.661 132.43 163.773 132.913 163.997 133.338C164.233 133.763 164.545 134.099 164.934 134.346C165.335 134.582 165.784 134.7 166.279 134.7ZM175.608 136.328C175.03 136.328 174.476 136.216 173.945 135.992C173.426 135.768 172.96 135.461 172.548 135.072C172.135 134.671 171.81 134.205 171.574 133.674C171.339 133.143 171.221 132.565 171.221 131.94C171.221 131.327 171.333 130.761 171.557 130.242C171.781 129.711 172.093 129.245 172.494 128.844C172.896 128.443 173.356 128.13 173.875 127.906C174.405 127.67 174.971 127.552 175.573 127.552C176.387 127.552 177.118 127.747 177.767 128.136C178.428 128.514 178.952 129.033 179.342 129.693C179.731 130.354 179.926 131.097 179.926 131.922C179.926 132.571 179.808 133.167 179.572 133.709C179.336 134.24 179.017 134.7 178.616 135.09C178.215 135.479 177.755 135.785 177.236 136.01C176.717 136.222 176.175 136.328 175.608 136.328ZM175.573 134.789C176.068 134.789 176.528 134.665 176.953 134.417C177.378 134.169 177.72 133.827 177.979 133.391C178.239 132.955 178.369 132.459 178.369 131.905C178.369 131.35 178.245 130.861 177.997 130.436C177.761 130.012 177.431 129.681 177.006 129.445C176.582 129.21 176.098 129.092 175.555 129.092C175.036 129.092 174.565 129.215 174.14 129.463C173.727 129.711 173.391 130.047 173.131 130.472C172.884 130.896 172.76 131.38 172.76 131.922C172.76 132.489 172.89 132.99 173.149 133.426C173.409 133.851 173.751 134.187 174.175 134.435C174.612 134.671 175.078 134.789 175.573 134.789ZM184.431 136.24C183.912 136.24 183.428 136.145 182.98 135.956C182.544 135.768 182.16 135.502 181.83 135.16C181.5 134.818 181.24 134.405 181.052 133.922C180.875 133.438 180.786 132.89 180.786 132.276V128.437C180.786 128.272 180.804 128.13 180.839 128.012C180.875 127.894 180.945 127.806 181.052 127.747C181.169 127.676 181.341 127.641 181.565 127.641C181.789 127.641 181.954 127.676 182.06 127.747C182.178 127.818 182.255 127.912 182.29 128.03C182.325 128.148 182.343 128.29 182.343 128.455V132.294C182.343 132.778 182.426 133.208 182.591 133.586C182.756 133.951 183.004 134.234 183.334 134.435C183.676 134.635 184.089 134.736 184.572 134.736C185.068 134.736 185.492 134.635 185.846 134.435C186.212 134.234 186.489 133.951 186.678 133.586C186.878 133.208 186.979 132.778 186.979 132.294V128.437C186.979 128.272 186.996 128.13 187.032 128.012C187.067 127.894 187.138 127.806 187.244 127.747C187.362 127.676 187.533 127.641 187.757 127.641C187.981 127.641 188.146 127.676 188.253 127.747C188.371 127.818 188.441 127.912 188.465 128.03C188.5 128.148 188.518 128.29 188.518 128.455V135.479C188.518 135.62 188.5 135.75 188.465 135.868C188.441 135.974 188.371 136.057 188.253 136.116C188.146 136.175 187.981 136.204 187.757 136.204C187.592 136.204 187.456 136.186 187.35 136.151C187.256 136.116 187.185 136.069 187.138 136.01C187.091 135.951 187.055 135.886 187.032 135.815C187.02 135.732 187.014 135.65 187.014 135.567L187.085 134.806C186.967 134.948 186.825 135.101 186.66 135.266C186.495 135.432 186.3 135.591 186.076 135.744C185.864 135.886 185.622 136.004 185.351 136.098C185.08 136.192 184.773 136.24 184.431 136.24ZM190.819 136.222C190.595 136.222 190.424 136.186 190.306 136.116C190.2 136.057 190.129 135.968 190.093 135.85C190.07 135.721 190.058 135.573 190.058 135.408V128.437C190.058 128.26 190.076 128.113 190.111 127.995C190.146 127.877 190.217 127.794 190.323 127.747C190.43 127.688 190.601 127.658 190.836 127.658C191.049 127.658 191.208 127.688 191.314 127.747C191.432 127.794 191.509 127.871 191.544 127.977C191.591 128.071 191.615 128.183 191.615 128.313L191.544 128.844C191.627 128.691 191.721 128.537 191.827 128.384C191.945 128.231 192.087 128.095 192.252 127.977C192.429 127.847 192.635 127.741 192.871 127.658C193.119 127.576 193.42 127.535 193.773 127.535C193.95 127.535 194.116 127.552 194.269 127.588C194.434 127.611 194.587 127.653 194.729 127.712C194.882 127.771 195.012 127.841 195.118 127.924C195.224 127.995 195.307 128.077 195.366 128.172C195.437 128.254 195.472 128.354 195.472 128.472C195.472 128.732 195.389 128.956 195.224 129.145C195.059 129.322 194.888 129.41 194.711 129.41C194.558 129.41 194.446 129.392 194.375 129.357C194.304 129.31 194.233 129.263 194.163 129.215C194.104 129.168 194.015 129.127 193.897 129.092C193.779 129.044 193.591 129.021 193.331 129.021C193.154 129.021 192.966 129.056 192.765 129.127C192.576 129.198 192.393 129.304 192.217 129.445C192.04 129.575 191.892 129.746 191.774 129.959C191.668 130.171 191.615 130.419 191.615 130.702V135.443C191.615 135.608 191.597 135.75 191.562 135.868C191.526 135.986 191.45 136.074 191.332 136.133C191.226 136.192 191.055 136.222 190.819 136.222ZM204.208 136.222C203.654 136.222 203.182 136.169 202.793 136.063C202.415 135.956 202.103 135.791 201.855 135.567C201.607 135.343 201.43 135.054 201.324 134.7C201.218 134.335 201.165 133.886 201.165 133.356V125.535C201.165 125.37 201.183 125.229 201.218 125.111C201.253 124.993 201.324 124.904 201.43 124.845C201.537 124.775 201.702 124.739 201.926 124.739C202.15 124.739 202.321 124.775 202.439 124.845C202.557 124.904 202.634 124.993 202.669 125.111C202.704 125.217 202.722 125.352 202.722 125.518V133.356C202.722 133.662 202.746 133.91 202.793 134.099C202.852 134.276 202.934 134.411 203.04 134.506C203.158 134.6 203.312 134.659 203.501 134.683C203.689 134.706 203.919 134.718 204.191 134.718C204.379 134.718 204.533 134.736 204.651 134.771C204.769 134.806 204.857 134.877 204.916 134.983C204.975 135.09 205.004 135.249 205.004 135.461C205.004 135.685 204.969 135.856 204.898 135.974C204.839 136.08 204.745 136.145 204.615 136.169C204.497 136.204 204.362 136.222 204.208 136.222ZM200.245 127.853L201.944 127.871L204.403 127.835C204.568 127.835 204.71 127.853 204.827 127.888C204.945 127.912 205.034 127.983 205.093 128.101C205.164 128.207 205.199 128.372 205.199 128.596C205.199 128.82 205.17 128.991 205.111 129.109C205.052 129.215 204.963 129.286 204.845 129.322C204.727 129.357 204.586 129.375 204.421 129.375L201.997 129.339L200.21 129.357C199.962 129.357 199.791 129.298 199.697 129.18C199.614 129.062 199.573 128.867 199.573 128.596C199.573 128.337 199.626 128.148 199.732 128.03C199.838 127.912 200.009 127.853 200.245 127.853ZM213.516 136.204C213.256 136.204 213.067 136.151 212.949 136.045C212.843 135.939 212.778 135.774 212.755 135.55L212.826 134.665C212.708 134.854 212.525 135.072 212.277 135.32C212.029 135.555 211.705 135.768 211.304 135.956C210.903 136.133 210.413 136.222 209.835 136.222C209.269 136.222 208.738 136.11 208.243 135.886C207.759 135.662 207.329 135.349 206.951 134.948C206.586 134.547 206.297 134.087 206.085 133.568C205.884 133.049 205.784 132.495 205.784 131.905C205.784 131.327 205.884 130.784 206.085 130.277C206.297 129.758 206.592 129.304 206.969 128.915C207.347 128.525 207.777 128.219 208.261 127.995C208.756 127.771 209.281 127.658 209.835 127.658C210.354 127.658 210.797 127.729 211.162 127.871C211.528 128.001 211.841 128.177 212.1 128.402C212.371 128.614 212.607 128.856 212.808 129.127L212.772 128.384C212.761 128.124 212.814 127.942 212.932 127.835C213.061 127.717 213.262 127.658 213.533 127.658C213.757 127.658 213.917 127.694 214.011 127.765C214.117 127.835 214.188 127.936 214.223 128.065C214.259 128.195 214.276 128.354 214.276 128.543V135.373C214.276 135.538 214.259 135.685 214.223 135.815C214.188 135.945 214.117 136.039 214.011 136.098C213.905 136.169 213.74 136.204 213.516 136.204ZM210.101 134.736C210.573 134.736 211.003 134.612 211.392 134.364C211.793 134.116 212.106 133.786 212.33 133.373C212.566 132.949 212.684 132.465 212.684 131.922C212.684 131.368 212.56 130.884 212.312 130.472C212.077 130.047 211.758 129.717 211.357 129.481C210.968 129.233 210.537 129.109 210.065 129.109C209.511 129.109 209.027 129.239 208.615 129.499C208.214 129.746 207.895 130.082 207.659 130.507C207.423 130.932 207.305 131.415 207.305 131.958C207.305 132.489 207.423 132.966 207.659 133.391C207.895 133.804 208.219 134.134 208.632 134.382C209.057 134.618 209.546 134.736 210.101 134.736ZM220.456 136.222C220.232 136.222 220.061 136.186 219.943 136.116C219.837 136.057 219.766 135.968 219.731 135.85C219.707 135.721 219.695 135.573 219.695 135.408V128.437C219.695 128.26 219.713 128.113 219.748 127.995C219.784 127.877 219.854 127.794 219.961 127.747C220.067 127.688 220.238 127.658 220.474 127.658C220.686 127.658 220.845 127.688 220.951 127.747C221.069 127.794 221.146 127.871 221.181 127.977C221.229 128.071 221.252 128.183 221.252 128.313L221.181 128.844C221.264 128.691 221.358 128.537 221.464 128.384C221.582 128.231 221.724 128.095 221.889 127.977C222.066 127.847 222.272 127.741 222.508 127.658C222.756 127.576 223.057 127.535 223.411 127.535C223.588 127.535 223.753 127.552 223.906 127.588C224.071 127.611 224.225 127.653 224.366 127.712C224.519 127.771 224.649 127.841 224.755 127.924C224.862 127.995 224.944 128.077 225.003 128.172C225.074 128.254 225.109 128.354 225.109 128.472C225.109 128.732 225.027 128.956 224.862 129.145C224.696 129.322 224.525 129.41 224.348 129.41C224.195 129.41 224.083 129.392 224.012 129.357C223.941 129.31 223.871 129.263 223.8 129.215C223.741 129.168 223.652 129.127 223.535 129.092C223.417 129.044 223.228 129.021 222.968 129.021C222.791 129.021 222.603 129.056 222.402 129.127C222.213 129.198 222.031 129.304 221.854 129.445C221.677 129.575 221.529 129.746 221.411 129.959C221.305 130.171 221.252 130.419 221.252 130.702V135.443C221.252 135.608 221.234 135.75 221.199 135.868C221.164 135.986 221.087 136.074 220.969 136.133C220.863 136.192 220.692 136.222 220.456 136.222ZM229.763 136.31C229.056 136.31 228.425 136.192 227.87 135.956C227.316 135.721 226.844 135.402 226.455 135.001C226.077 134.588 225.788 134.116 225.588 133.586C225.387 133.055 225.287 132.483 225.287 131.869C225.287 131.056 225.476 130.33 225.853 129.693C226.231 129.056 226.75 128.555 227.41 128.189C228.082 127.812 228.849 127.623 229.71 127.623C230.3 127.623 230.825 127.717 231.285 127.906C231.757 128.083 232.158 128.325 232.488 128.632C232.818 128.938 233.072 129.28 233.249 129.658C233.426 130.035 233.514 130.413 233.514 130.79C233.514 131.392 233.373 131.816 233.09 132.064C232.806 132.3 232.459 132.418 232.046 132.418H226.932C226.921 132.937 227.056 133.385 227.339 133.763C227.634 134.128 228 134.411 228.436 134.612C228.885 134.812 229.333 134.913 229.781 134.913C230.111 134.913 230.394 134.895 230.63 134.859C230.866 134.824 231.073 134.777 231.25 134.718C231.426 134.659 231.58 134.6 231.71 134.541C231.839 134.482 231.951 134.423 232.046 134.364C232.152 134.305 232.252 134.264 232.346 134.24C232.453 134.217 232.553 134.228 232.647 134.276C232.753 134.311 232.836 134.388 232.895 134.506C232.966 134.6 233.013 134.688 233.036 134.771C233.06 134.854 233.072 134.942 233.072 135.036C233.072 135.202 232.93 135.384 232.647 135.585C232.364 135.785 231.969 135.956 231.462 136.098C230.966 136.24 230.4 136.31 229.763 136.31ZM226.932 131.374H231.373C231.597 131.374 231.763 131.344 231.869 131.286C231.987 131.227 232.046 131.067 232.046 130.808C232.046 130.478 231.945 130.183 231.745 129.923C231.544 129.652 231.267 129.434 230.913 129.269C230.571 129.103 230.176 129.021 229.728 129.021C229.209 129.021 228.731 129.127 228.295 129.339C227.87 129.54 227.534 129.817 227.286 130.171C227.039 130.525 226.921 130.926 226.932 131.374ZM238.718 136.257C238.105 136.257 237.527 136.157 236.984 135.956C236.453 135.756 235.981 135.467 235.569 135.09C235.168 134.712 234.849 134.264 234.613 133.745C234.389 133.214 234.277 132.612 234.277 131.94C234.277 131.268 234.389 130.672 234.613 130.153C234.849 129.622 235.168 129.168 235.569 128.791C235.97 128.413 236.436 128.124 236.966 127.924C237.509 127.723 238.081 127.623 238.683 127.623C239.084 127.623 239.479 127.688 239.868 127.818C240.257 127.936 240.599 128.095 240.894 128.295C241.201 128.484 241.419 128.685 241.549 128.897C241.667 129.05 241.749 129.18 241.796 129.286C241.855 129.381 241.861 129.493 241.814 129.622C241.767 129.717 241.702 129.805 241.62 129.888C241.537 129.959 241.454 130.018 241.372 130.065C241.16 130.23 240.947 130.253 240.735 130.135C240.605 130.006 240.458 129.888 240.293 129.782C240.139 129.664 239.974 129.558 239.797 129.463C239.62 129.369 239.437 129.298 239.249 129.251C239.072 129.192 238.883 129.162 238.683 129.162C238.128 129.162 237.639 129.28 237.214 129.516C236.789 129.74 236.459 130.065 236.223 130.489C235.999 130.902 235.887 131.386 235.887 131.94C235.887 132.495 235.999 132.978 236.223 133.391C236.459 133.804 236.783 134.128 237.196 134.364C237.621 134.6 238.105 134.718 238.647 134.718C238.895 134.718 239.131 134.688 239.355 134.629C239.591 134.559 239.809 134.47 240.009 134.364C240.21 134.246 240.375 134.122 240.505 133.993C240.623 133.91 240.723 133.839 240.806 133.78C240.888 133.721 240.988 133.692 241.106 133.692C241.201 133.692 241.301 133.733 241.407 133.816C241.513 133.886 241.625 133.998 241.743 134.152C241.838 134.258 241.891 134.37 241.903 134.488C241.926 134.606 241.909 134.718 241.85 134.824C241.791 134.93 241.696 135.036 241.566 135.143C241.378 135.331 241.124 135.514 240.806 135.691C240.499 135.856 240.163 135.992 239.797 136.098C239.432 136.204 239.072 136.257 238.718 136.257ZM247.102 136.31C246.395 136.31 245.764 136.192 245.209 135.956C244.655 135.721 244.183 135.402 243.794 135.001C243.416 134.588 243.127 134.116 242.927 133.586C242.726 133.055 242.626 132.483 242.626 131.869C242.626 131.056 242.815 130.33 243.192 129.693C243.57 129.056 244.089 128.555 244.749 128.189C245.421 127.812 246.188 127.623 247.049 127.623C247.639 127.623 248.164 127.717 248.624 127.906C249.096 128.083 249.497 128.325 249.827 128.632C250.157 128.938 250.411 129.28 250.588 129.658C250.765 130.035 250.853 130.413 250.853 130.79C250.853 131.392 250.712 131.816 250.429 132.064C250.146 132.3 249.798 132.418 249.385 132.418H244.271C244.26 132.937 244.395 133.385 244.678 133.763C244.973 134.128 245.339 134.411 245.775 134.612C246.224 134.812 246.672 134.913 247.12 134.913C247.45 134.913 247.733 134.895 247.969 134.859C248.205 134.824 248.412 134.777 248.589 134.718C248.765 134.659 248.919 134.6 249.049 134.541C249.178 134.482 249.29 134.423 249.385 134.364C249.491 134.305 249.591 134.264 249.685 134.24C249.792 134.217 249.892 134.228 249.986 134.276C250.092 134.311 250.175 134.388 250.234 134.506C250.305 134.6 250.352 134.688 250.376 134.771C250.399 134.854 250.411 134.942 250.411 135.036C250.411 135.202 250.269 135.384 249.986 135.585C249.703 135.785 249.308 135.956 248.801 136.098C248.305 136.24 247.739 136.31 247.102 136.31ZM244.271 131.374H248.712C248.936 131.374 249.102 131.344 249.208 131.286C249.326 131.227 249.385 131.067 249.385 130.808C249.385 130.478 249.284 130.183 249.084 129.923C248.883 129.652 248.606 129.434 248.252 129.269C247.91 129.103 247.515 129.021 247.067 129.021C246.548 129.021 246.07 129.127 245.634 129.339C245.209 129.54 244.873 129.817 244.625 130.171C244.378 130.525 244.26 130.926 244.271 131.374ZM255.827 136.222C255.107 136.222 254.535 136.127 254.111 135.939C253.686 135.75 253.379 135.443 253.191 135.019C253.014 134.594 252.925 134.04 252.925 133.356V129.357L251.97 129.375C251.734 129.375 251.569 129.316 251.474 129.198C251.38 129.068 251.333 128.862 251.333 128.578C251.333 128.307 251.386 128.118 251.492 128.012C251.598 127.894 251.769 127.835 252.005 127.835L252.925 127.853V125.535C252.925 125.37 252.943 125.229 252.978 125.111C253.014 124.993 253.084 124.904 253.191 124.845C253.297 124.775 253.462 124.739 253.686 124.739C253.91 124.739 254.081 124.775 254.199 124.845C254.317 124.904 254.394 124.993 254.429 125.111C254.465 125.217 254.482 125.352 254.482 125.518V127.853C254.671 127.853 254.913 127.853 255.208 127.853C255.503 127.841 255.756 127.835 255.968 127.835C256.228 127.824 256.523 127.824 256.853 127.835C257.183 127.835 257.437 127.841 257.614 127.853V125.535C257.614 125.37 257.632 125.229 257.667 125.111C257.702 124.993 257.773 124.904 257.879 124.845C257.985 124.775 258.151 124.739 258.375 124.739C258.599 124.739 258.764 124.775 258.87 124.845C258.988 124.904 259.065 124.993 259.1 125.111C259.147 125.217 259.171 125.352 259.171 125.518V127.871L260.852 127.835C261.005 127.835 261.141 127.853 261.259 127.888C261.377 127.912 261.471 127.983 261.542 128.101C261.612 128.207 261.648 128.372 261.648 128.596C261.648 128.82 261.612 128.991 261.542 129.109C261.483 129.227 261.394 129.304 261.276 129.339C261.17 129.363 261.035 129.375 260.869 129.375L259.171 129.339V133.356C259.171 133.768 259.212 134.069 259.295 134.258C259.389 134.447 259.542 134.571 259.755 134.629C259.979 134.688 260.274 134.718 260.639 134.718C260.828 134.718 260.981 134.736 261.099 134.771C261.217 134.806 261.306 134.877 261.365 134.983C261.424 135.09 261.453 135.249 261.453 135.461C261.453 135.685 261.418 135.856 261.347 135.974C261.276 136.08 261.182 136.145 261.064 136.169C260.946 136.204 260.81 136.222 260.657 136.222C259.926 136.222 259.336 136.127 258.888 135.939C258.44 135.75 258.115 135.443 257.915 135.019C257.714 134.594 257.614 134.04 257.614 133.356V129.357C257.59 129.357 257.478 129.357 257.278 129.357C257.089 129.357 256.871 129.363 256.623 129.375C256.387 129.375 256.181 129.375 256.004 129.375C255.792 129.375 255.538 129.375 255.243 129.375C254.948 129.363 254.695 129.351 254.482 129.339V133.356C254.482 133.768 254.518 134.069 254.588 134.258C254.659 134.447 254.789 134.571 254.978 134.629C255.178 134.688 255.461 134.718 255.827 134.718C256.004 134.718 256.151 134.736 256.269 134.771C256.387 134.806 256.476 134.877 256.535 134.983C256.605 135.09 256.641 135.249 256.641 135.461C256.641 135.685 256.605 135.856 256.535 135.974C256.464 136.08 256.369 136.145 256.252 136.169C256.134 136.204 255.992 136.222 255.827 136.222ZM266.601 136.31C265.893 136.31 265.262 136.192 264.708 135.956C264.154 135.721 263.682 135.402 263.293 135.001C262.915 134.588 262.626 134.116 262.426 133.586C262.225 133.055 262.125 132.483 262.125 131.869C262.125 131.056 262.314 130.33 262.691 129.693C263.068 129.056 263.587 128.555 264.248 128.189C264.92 127.812 265.687 127.623 266.548 127.623C267.138 127.623 267.663 127.717 268.123 127.906C268.595 128.083 268.996 128.325 269.326 128.632C269.656 128.938 269.91 129.28 270.087 129.658C270.264 130.035 270.352 130.413 270.352 130.79C270.352 131.392 270.21 131.816 269.927 132.064C269.644 132.3 269.296 132.418 268.883 132.418H263.77C263.758 132.937 263.894 133.385 264.177 133.763C264.472 134.128 264.838 134.411 265.274 134.612C265.722 134.812 266.171 134.913 266.619 134.913C266.949 134.913 267.232 134.895 267.468 134.859C267.704 134.824 267.91 134.777 268.087 134.718C268.264 134.659 268.418 134.6 268.547 134.541C268.677 134.482 268.789 134.423 268.883 134.364C268.99 134.305 269.09 134.264 269.184 134.24C269.29 134.217 269.391 134.228 269.485 134.276C269.591 134.311 269.674 134.388 269.733 134.506C269.804 134.6 269.851 134.688 269.874 134.771C269.898 134.854 269.91 134.942 269.91 135.036C269.91 135.202 269.768 135.384 269.485 135.585C269.202 135.785 268.807 135.956 268.3 136.098C267.804 136.24 267.238 136.31 266.601 136.31ZM263.77 131.374H268.211C268.435 131.374 268.6 131.344 268.707 131.286C268.825 131.227 268.883 131.067 268.883 130.808C268.883 130.478 268.783 130.183 268.583 129.923C268.382 129.652 268.105 129.434 267.751 129.269C267.409 129.103 267.014 129.021 266.566 129.021C266.047 129.021 265.569 129.127 265.133 129.339C264.708 129.54 264.372 129.817 264.124 130.171C263.876 130.525 263.758 130.926 263.77 131.374ZM272.282 136.24C271.929 136.24 271.681 136.169 271.539 136.027C271.398 135.886 271.327 135.65 271.327 135.32C271.327 135.072 271.357 134.883 271.416 134.753C271.475 134.612 271.575 134.512 271.716 134.453C271.858 134.382 272.047 134.346 272.282 134.346C272.636 134.346 272.878 134.417 273.008 134.559C273.149 134.7 273.22 134.948 273.22 135.302C273.22 135.538 273.191 135.726 273.132 135.868C273.073 135.998 272.973 136.092 272.831 136.151C272.701 136.21 272.518 136.24 272.282 136.24Z" fill="black"/>
<rect x="-7.08572" y="327.874" width="108.337" height="108.337" fill="#FFD833" stroke="white" stroke-width="0.853946"/>
<rect x="-6.89529" y="437.128" width="107.958" height="56.6482" fill="#FFD833" stroke="white" stroke-width="0.853946"/>
<rect x="102.106" y="327.874" width="108.337" height="108.337" fill="#FFD833" stroke="white" stroke-width="0.853946"/>
<rect x="211.296" y="327.874" width="108.337" height="108.337" fill="#FFD833" stroke="white" stroke-width="0.853946"/>
<rect x="320.488" y="327.874" width="108.337" height="108.337" fill="#FFD833" stroke="white" stroke-width="0.853946"/>
<rect x="101.915" y="437.128" width="108.4" height="56.6482" fill="#FFD833" stroke="white" stroke-width="0.853946"/>
<rect x="211.17" y="437.128" width="108.4" height="56.6482" fill="#FFD833" stroke="white" stroke-width="0.853946"/>
<rect x="320.424" y="437.128" width="108.4" height="56.6482" fill="#FFD833" stroke="white" stroke-width="0.853946"/>
<rect x="-7.14822" y="437.427" width="108.337" height="108.337" fill="#FFD833" stroke="white" stroke-width="0.853946"/>
<rect x="-7.14822" y="546.618" width="108.337" height="108.337" fill="#FFD833" stroke="white" stroke-width="0.853946"/>
<rect x="-7.14822" y="655.624" width="108.337" height="108.337" fill="#FFD833" stroke="white" stroke-width="0.853946"/>
<rect x="-7.14822" y="764.816" width="108.337" height="108.337" fill="#FFD833" stroke="white" stroke-width="0.853946"/>
<rect x="102.042" y="437.427" width="108.337" height="108.337" fill="#FFD833" stroke="white" stroke-width="0.853946"/>
<rect x="211.234" y="437.427" width="108.337" height="108.337" fill="#FFD833" stroke="white" stroke-width="0.853946"/>
<rect x="320.424" y="437.427" width="108.337" height="108.337" fill="#FFD833" stroke="white" stroke-width="0.853946"/>
<rect x="102.042" y="546.618" width="108.337" height="108.337" fill="#FFD833" stroke="white" stroke-width="0.853946"/>
<rect x="211.234" y="546.618" width="108.337" height="108.337" fill="#FFD833" stroke="white" stroke-width="0.853946"/>
<rect x="320.424" y="546.618" width="108.337" height="108.337" fill="#FFD833" stroke="white" stroke-width="0.853946"/>
<rect x="102.042" y="655.624" width="108.337" height="108.337" fill="#FFD833" stroke="white" stroke-width="0.853946"/>
<rect x="211.234" y="655.624" width="108.337" height="108.337" fill="#FFD833" stroke="white" stroke-width="0.853946"/>
<rect x="320.424" y="655.624" width="108.337" height="108.337" fill="#FFD833" stroke="white" stroke-width="0.853946"/>
<rect x="102.042" y="764.816" width="108.337" height="108.337" fill="#FFD833" stroke="white" stroke-width="0.853946"/>
<rect x="211.234" y="764.816" width="108.337" height="108.337" fill="#FFD833" stroke="white" stroke-width="0.853946"/>
<rect x="320.424" y="764.816" width="108.337" height="108.337" fill="#FFD833" stroke="white" stroke-width="0.853946"/>
<rect x="-7.08572" y="764.874" width="108.337" height="108.337" fill="#FFD833" stroke="white" stroke-width="0.853946"/>
<rect x="-6.89529" y="874.128" width="107.958" height="56.6482" fill="#FFD833" stroke="white" stroke-width="0.853946"/>
<rect x="102.106" y="764.874" width="108.337" height="108.337" fill="#FFD833" stroke="white" stroke-width="0.853946"/>
<rect x="211.296" y="764.874" width="108.337" height="108.337" fill="#FFD833" stroke="white" stroke-width="0.853946"/>
<rect x="320.488" y="764.874" width="108.337" height="108.337" fill="#FFD833" stroke="white" stroke-width="0.853946"/>
<rect x="101.915" y="874.128" width="108.4" height="56.6482" fill="#FFD833" stroke="white" stroke-width="0.853946"/>
<rect x="211.17" y="874.128" width="108.4" height="56.6482" fill="#FFD833" stroke="white" stroke-width="0.853946"/>
<rect x="320.424" y="874.128" width="108.4" height="56.6482" fill="#FFD833" stroke="white" stroke-width="0.853946"/>
<path d="M350.093 232.165C351.752 232.073 353.299 232.411 354.822 232.91C355.052 232.976 355.258 233.074 355.456 233.116C355.849 233.205 356.22 233.003 356.288 232.639C356.354 232.409 356.263 232.209 356.076 232.082C355.954 231.996 355.776 231.923 355.631 231.869C355.485 231.814 355.435 231.687 355.542 231.535C355.562 231.506 355.605 231.444 355.596 231.39C355.95 230.676 356.63 230.551 357.325 230.664C357.689 230.732 358.041 230.884 358.341 231.042C359.127 231.492 359.848 232.035 360.475 232.648C360.867 233.007 361.246 233.45 361.542 233.881C361.879 234.385 361.954 234.937 361.811 235.481C361.731 235.792 361.5 235.997 361.189 236.054C361.085 236.072 360.939 236.017 360.898 235.945C360.737 235.652 360.563 235.307 360.379 235.041C360.266 234.872 360.134 234.736 359.936 234.688C359.707 234.622 359.477 234.693 359.318 234.857C359.159 235.02 359.062 235.227 359.133 235.456C359.151 235.561 359.223 235.656 359.265 235.729C359.722 236.453 359.952 237.251 360.075 238.064C360.187 238.962 360.165 239.857 359.983 240.785C359.679 242.352 359.082 243.814 358.231 245.189C357.902 245.737 357.529 246.21 357.043 246.651C356.673 246.99 356.241 247.285 355.762 247.456C354.999 247.707 354.301 247.591 353.62 247.26C353.319 247.101 353.135 246.835 353.046 246.501C352.999 246.24 353 245.97 353.09 245.708C353.169 245.397 353.296 245.074 353.407 244.786C353.462 244.64 353.517 244.495 353.539 244.332C353.618 244.021 353.286 243.702 352.934 243.687C352.663 243.685 352.432 243.753 352.261 244C352.157 244.155 352.08 244.333 351.944 244.464C351.426 245.019 350.783 245.353 349.995 245.311C349.123 245.257 348.556 244.55 348.788 243.75C348.854 243.52 348.971 243.284 349.099 243.098C349.332 242.759 349.628 242.459 349.987 242.204C350.155 242.09 350.322 241.981 350.459 241.844C350.777 241.517 350.752 241.088 350.274 240.851C350.099 240.777 349.931 240.754 349.783 240.833C349.583 240.924 349.395 241.068 349.195 241.158C348.752 241.401 348.322 241.7 347.882 241.941C347.639 242.093 347.36 242.173 347.105 242.273C346.876 242.344 346.658 242.33 346.419 242.209C346.026 241.985 345.699 241.667 345.494 241.298C345.289 240.93 345.243 240.535 345.384 240.13C345.395 240.046 345.439 239.985 345.482 239.924C345.836 239.21 346.755 238.34 347.501 237.985C348.278 237.653 348.959 237.257 349.631 236.806C349.727 236.733 349.874 236.654 349.99 236.552C350.178 236.408 350.203 236.106 350.135 235.874C350.045 235.674 349.858 235.547 349.61 235.514C349.497 235.482 349.369 235.532 349.297 235.573C348.563 235.844 347.902 236.21 347.238 236.574C347.07 236.687 346.903 236.796 346.754 236.881C346.189 237.174 345.594 237.174 345.034 236.929C344.411 236.639 344.068 235.946 344.192 235.303C344.36 234.462 344.828 233.78 345.587 233.344C346.395 232.898 347.236 232.47 348.165 232.245C348.758 232.242 349.426 232.201 350.094 232.16L350.093 232.165Z" fill="#FF932F" stroke="black" stroke-width="1.03461" stroke-miterlimit="10"/>
<path d="M376.572 198.31L353.943 231.207C353.943 231.207 355.068 236.86 362.887 237.358L384.475 207.162L376.57 198.307L376.572 198.31Z" fill="#4B52FF" stroke="black" stroke-width="1.03461" stroke-miterlimit="10"/>
<path d="M423.327 168.622L450.34 204.093C450.34 204.093 449.785 210.181 441.706 210.669L416.067 178.119L423.327 168.622Z" fill="#4B52FF" stroke="black" stroke-width="1.03461" stroke-miterlimit="10"/>
<path d="M378.769 197.218C398.32 224.442 417.903 251.646 437.454 278.87C441.449 275.686 445.447 272.499 449.419 269.286C443.89 262.211 435.901 251.535 426.945 238.1C420.915 229.002 408.442 210.267 410.18 208.896C412.018 207.402 429.412 226.589 437.301 235.645C445.165 244.669 451.491 252.79 456.142 259.021C456.256 259.171 458.048 261.585 458.744 262.562L458.995 262.891C462.746 260.317 466.523 257.772 470.245 255.221C449.25 226.971 428.226 198.743 407.232 170.493" fill="#FF0000"/>
<path d="M378.769 197.218C398.32 224.442 417.903 251.646 437.454 278.87C441.449 275.686 445.447 272.499 449.419 269.286C443.89 262.211 435.901 251.535 426.945 238.1C420.915 229.002 408.442 210.267 410.18 208.896C412.018 207.402 429.412 226.589 437.301 235.645C445.165 244.669 451.491 252.79 456.142 259.021C456.256 259.171 458.048 261.585 458.744 262.562L458.995 262.891C462.746 260.317 466.523 257.772 470.245 255.221C449.25 226.971 428.226 198.743 407.232 170.493" stroke="black" stroke-width="1.03461" stroke-miterlimit="10"/>
<path d="M323.897 95.0996C323.03 95.7599 325.74 99.6907 328.194 108.304C330.012 114.661 329.333 115.32 329.104 115.448C327.652 116.27 323.167 109.203 321.64 109.988C320.112 110.774 324.621 118.059 324.392 127.676C324.18 136.572 320.819 140.595 317.631 149.112C316.319 152.662 309.366 171.364 316.093 189C316.507 190.102 324.482 209.996 344.626 215.619C357.928 219.321 369.224 214.875 376.611 211.989C385.841 208.361 391.719 203.555 401.283 195.657C408.826 189.44 413.432 184.515 421.541 175.699C426.005 170.835 428.068 168.272 430.056 164.685C431.762 161.591 435.002 155.679 435.362 147.847C436.152 130.721 422.511 118.634 419.3 116.029C419.081 115.866 418.551 115.419 417.795 114.86C415.921 113.454 408.76 108.33 397.178 106.012C392.22 105.021 388.532 104.949 383.12 104.913C363.954 104.732 359.703 108.82 352.018 104.994C345.668 101.804 343.33 96.3143 340.905 97.4047C337.537 98.9305 339.941 110.275 338.177 110.626C337.074 110.852 336.15 106.6 332.132 101.634C328.948 97.6392 324.768 94.4453 323.901 95.1056" fill="#FF932F"/>
<path d="M323.897 95.0996C323.03 95.7599 325.74 99.6907 328.194 108.304C330.012 114.661 329.333 115.32 329.104 115.448C327.652 116.27 323.167 109.203 321.64 109.988C320.112 110.774 324.621 118.059 324.392 127.676C324.18 136.572 320.819 140.595 317.631 149.112C316.319 152.662 309.366 171.364 316.093 189C316.507 190.102 324.482 209.996 344.626 215.619C357.928 219.321 369.224 214.875 376.611 211.989C385.841 208.361 391.719 203.555 401.283 195.657C408.826 189.44 413.432 184.515 421.541 175.699C426.005 170.835 428.068 168.272 430.056 164.685C431.762 161.591 435.002 155.679 435.362 147.847C436.152 130.721 422.511 118.634 419.3 116.029C419.081 115.866 418.551 115.419 417.795 114.86C415.921 113.454 408.76 108.33 397.178 106.012C392.22 105.021 388.532 104.949 383.12 104.913C363.954 104.732 359.703 108.82 352.018 104.994C345.668 101.804 343.33 96.3143 340.905 97.4047C337.537 98.9305 339.941 110.275 338.177 110.626C337.074 110.852 336.15 106.6 332.132 101.634C328.948 97.6392 324.768 94.4453 323.901 95.1056" stroke="black" stroke-width="1.03461" stroke-miterlimit="10"/>
<path d="M399.13 118.871C402.777 119.07 411.836 120.055 420.671 126.638C430.975 134.276 434.303 144.538 435.272 147.858" stroke="black" stroke-width="1.03461" stroke-miterlimit="10"/>
<path d="M327.998 175.498C327.536 179.109 326.814 188.204 331.613 198.098C337.21 209.603 346.665 214.822 349.755 216.338" stroke="black" stroke-width="1.03461" stroke-miterlimit="10"/>
<path d="M349.246 177.265C348.784 180.876 346.279 186.178 351.078 196.072C356.675 207.577 366.129 212.796 369.22 214.312" stroke="black" stroke-width="1.03461" stroke-miterlimit="10"/>
<path d="M394.946 144.25C398.326 143.849 404.896 143.612 412.114 146.708C423.974 151.743 428.986 162.046 430.179 164.723" stroke="black" stroke-width="1.03461" stroke-miterlimit="10"/>
<path d="M388.73 147.992C393.601 144.283 393.038 135.363 387.462 128.041C381.886 120.719 373.437 117.805 368.566 121.514C363.696 125.223 364.258 134.143 369.834 141.466C375.41 148.788 383.86 151.701 388.73 147.992Z" fill="white" stroke="black" stroke-width="1.03461" stroke-miterlimit="10"/>
<path d="M382.674 140.847C385.066 139.025 385.292 135.358 383.245 132.67C381.198 129.982 377.57 129.249 375.211 131.046C372.852 132.842 372.593 136.535 374.64 139.223C376.687 141.911 380.315 142.643 382.674 140.847Z" fill="black"/>
<path d="M357.382 171.865C362.252 168.156 361.69 159.236 356.114 151.914C350.537 144.592 342.088 141.678 337.217 145.387C332.347 149.096 332.909 158.017 338.485 165.339C344.062 172.661 352.511 175.574 357.382 171.865Z" fill="white" stroke="black" stroke-width="1.03461" stroke-miterlimit="10"/>
<path d="M351.954 164.241C354.346 162.419 354.571 158.752 352.524 156.064C350.478 153.376 346.849 152.644 344.49 154.44C342.131 156.237 341.873 159.929 343.92 162.617C345.962 165.36 349.565 166.06 351.954 164.241Z" fill="black"/>
<path d="M449.208 272.342C449.123 272.289 449.132 272.159 449.226 272.121C449.389 272.053 449.719 272.047 450.377 272.37C451.193 272.771 452.769 275.143 453.651 276.546C454.086 277.239 454.643 277.847 455.294 278.343C456.551 279.298 457.675 280.204 458.43 280.972C459.225 281.78 459.393 283.012 458.843 284.003C457.83 285.826 455.736 287.656 453.115 289.49C452.529 289.9 452.023 290.413 451.627 291.009C447.177 297.716 442.295 301.457 437.072 302.87C436.441 303.041 435.768 302.817 435.365 302.302C434.48 301.171 434.651 299.73 435.063 298.219C435.292 297.375 435.692 296.588 436.227 295.896C438.802 292.566 440.729 289.757 441.637 287.767C441.994 286.986 442.124 286.119 442.028 285.266C441.826 283.483 441.398 282.081 440.685 281.158C440.115 280.303 440.259 279.657 441.275 279.364L442.896 278.924L442.977 278.502C443.066 278.041 443.421 277.674 443.88 277.577C445.558 277.223 447.202 276.44 448.813 275.213C449.945 274.046 450.322 273.038 449.208 272.343L449.208 272.342Z" fill="#4B52FF" stroke="black" stroke-width="1.03461" stroke-miterlimit="10"/>
<path d="M386.689 157.495L365.494 173.636C365.494 173.636 373.814 186.482 385.029 177.941C396.244 169.401 386.689 157.495 386.689 157.495Z" fill="white" stroke="black" stroke-width="1.03461"/>
</g>
<defs>
<clipPath id="clip0_1258_414">
<rect width="430" height="930" fill="white"/>
</clipPath>
</defs>
</svg>
