<svg width="344" height="336" viewBox="0 0 344 336" fill="none" xmlns="http://www.w3.org/2000/svg">
<path d="M2.41924 304.364L32.1533 1.94354L341.727 31.0034L318.315 269.123L260.006 328.544L157.206 318.894L2.41924 304.364Z" fill="#FFD600" stroke="black" stroke-width="3"/>
<rect width="307.936" height="75.2536" transform="matrix(0.995623 0.0934595 -0.0978485 0.995201 33.5059 3.50977)" fill="#FFA800"/>
<path d="M107.895 139.993C105.465 139.774 103.422 139.289 101.765 138.537C100.148 137.789 98.8393 136.968 97.8387 136.075C96.842 135.142 96.0966 134.312 95.6027 133.584C95.1088 132.857 94.8097 132.409 94.7052 132.239C94.0023 131.171 93.5888 130.23 93.4647 129.416C93.3805 128.605 93.5751 127.819 94.0486 127.059C94.562 126.302 95.3617 125.49 96.4478 124.624C97.4467 123.831 98.3882 123.433 99.2721 123.433C100.16 123.392 100.999 123.649 101.791 124.202C102.622 124.759 103.393 125.531 104.104 126.518C104.958 127.68 105.706 128.49 106.345 128.949C106.989 129.369 107.749 129.618 108.625 129.697C109.701 129.794 110.589 129.753 111.288 129.575C111.992 129.357 112.527 129.004 112.895 128.515C113.266 127.986 113.491 127.304 113.57 126.467C113.634 125.79 113.344 125.242 112.701 124.823C112.061 124.363 111.197 123.944 110.107 123.565C109.058 123.189 107.871 122.781 106.547 122.341C105.226 121.86 103.935 121.282 102.673 120.606C101.906 120.216 101.167 119.748 100.455 119.202C99.7428 118.656 99.0764 118.054 98.4555 117.395C97.8781 116.701 97.3899 115.914 96.9907 115.034C96.5952 114.115 96.3088 113.105 96.1313 112.005C95.9937 110.908 95.9887 109.683 96.1164 108.329C96.3455 105.9 97.1478 103.783 98.5233 101.979C99.9385 100.179 101.755 98.8164 103.971 97.8915C106.228 96.9701 108.71 96.6314 111.419 96.8754C113.371 97.0512 115.03 97.3611 116.394 97.8053C117.758 98.2494 118.858 98.73 119.693 99.2469C120.568 99.7675 121.226 100.248 121.666 100.69C122.111 101.091 122.387 101.357 122.495 101.487C123.697 102.8 124.317 103.9 124.354 104.787C124.394 105.634 123.802 106.806 122.576 108.302C121.219 109.907 119.952 110.776 118.774 110.911C117.6 111.006 116.301 110.508 114.877 109.416C114.581 109.148 114.287 108.861 113.994 108.553C113.706 108.206 113.292 107.908 112.753 107.658C112.257 107.373 111.472 107.182 110.396 107.085C109.998 107.049 109.592 107.093 109.179 107.216C108.769 107.3 108.413 107.448 108.112 107.662C107.814 107.836 107.551 108.073 107.322 108.374C107.132 108.678 107.021 109.01 106.987 109.368C106.908 110.204 107.165 110.89 107.757 111.425C108.353 111.921 109.158 112.335 110.171 112.667C111.224 113.003 112.377 113.347 113.629 113.701C114.882 114.055 116.146 114.49 117.423 115.007C118.465 115.462 119.458 116.013 120.401 116.66C121.345 117.308 122.153 118.103 122.828 119.048C123.502 119.992 123.996 121.141 124.311 122.495C124.669 123.812 124.759 125.406 124.583 127.278C124.339 129.867 123.632 132.032 122.463 133.774C121.298 135.477 119.867 136.814 118.168 137.785C116.513 138.72 114.766 139.346 112.928 139.663C111.127 140.023 109.449 140.133 107.895 139.993ZM150.211 143.08C148.419 142.919 147.112 142.5 146.292 141.824C145.512 141.151 145.177 140.438 145.289 139.685L146.125 139.76C145.9 140.021 145.466 140.364 144.823 140.788C144.224 141.175 143.428 141.525 142.434 141.838C141.444 142.11 140.252 142.183 138.857 142.058C137.065 141.896 135.369 141.342 133.771 140.395C132.217 139.412 130.85 138.144 129.67 136.592C128.53 135.043 127.667 133.339 127.079 131.479C126.495 129.579 126.296 127.633 126.484 125.642C126.668 123.691 127.223 121.853 128.149 120.129C129.075 118.405 130.261 116.906 131.707 115.63C133.157 114.315 134.736 113.333 136.445 112.683C138.157 111.994 139.91 111.73 141.702 111.892C143.057 112.014 144.174 112.315 145.052 112.796C145.971 113.28 146.687 113.786 147.199 114.314C147.752 114.846 148.113 115.28 148.282 115.617L147.624 115.557C147.678 114.558 148.15 113.818 149.039 113.335C149.968 112.857 151.329 112.698 153.122 112.86C154.915 113.021 156.143 113.413 156.808 114.035C157.516 114.621 157.91 115.339 157.991 116.19C158.071 117.04 158.07 117.904 157.987 118.78L156.156 138.194C156.074 139.07 155.913 139.919 155.675 140.741C155.437 141.563 154.915 142.198 154.109 142.648C153.343 143.101 152.044 143.245 150.211 143.08ZM141.371 131.38C142.128 131.448 142.824 131.31 143.459 130.966C144.134 130.625 144.681 130.152 145.1 129.547C145.562 128.906 145.829 128.207 145.9 127.451C145.975 126.654 145.844 125.919 145.505 125.246C145.207 124.577 144.758 124.014 144.158 123.559C143.558 123.103 142.86 122.839 142.063 122.768C141.266 122.696 140.51 122.829 139.795 123.166C139.12 123.507 138.552 123.998 138.09 124.639C137.631 125.24 137.364 125.939 137.289 126.736C137.218 127.492 137.351 128.207 137.69 128.88C138.068 129.557 138.577 130.125 139.216 130.584C139.856 131.043 140.574 131.309 141.371 131.38ZM171.871 145.151C170.038 144.986 168.432 144.761 167.053 144.476C165.714 144.195 164.588 143.772 163.677 143.208C162.766 142.644 162.053 141.897 161.538 140.967C161.027 139.998 160.7 138.783 160.556 137.325C160.416 135.826 160.449 133.982 160.656 131.791L163.152 105.329C163.238 104.413 163.398 103.564 163.633 102.782C163.871 101.96 164.393 101.324 165.199 100.875C166.008 100.385 167.31 100.221 169.102 100.383C170.895 100.544 172.124 100.936 172.788 101.558C173.496 102.144 173.891 102.862 173.971 103.713C174.052 104.563 174.049 105.447 173.962 106.363L171.534 132.108C171.478 132.706 171.433 133.184 171.399 133.542C171.409 133.864 171.446 134.108 171.511 134.275C171.615 134.445 171.765 134.559 171.96 134.617C172.2 134.638 172.518 134.667 172.917 134.703C173.435 134.749 173.965 134.877 174.508 135.087C175.094 135.26 175.552 135.723 175.883 136.476C176.258 137.192 176.364 138.407 176.202 140.119C176.033 141.911 175.694 143.166 175.185 143.883C174.715 144.604 174.176 144.997 173.567 145.063C172.954 145.168 172.389 145.198 171.871 145.151ZM192.474 147.669C189.486 147.4 187.001 146.694 185.02 145.552C183.042 144.37 181.489 142.945 180.36 141.277C179.236 139.569 178.461 137.772 178.036 135.887C177.611 134.001 177.48 132.202 177.641 130.489C177.938 127.343 178.896 124.639 180.516 122.375C182.136 120.111 184.244 118.413 186.842 117.282C189.44 116.15 192.332 115.728 195.519 116.015C197.989 116.237 200.063 116.825 201.741 117.78C203.419 118.734 204.737 119.877 205.697 121.208C206.696 122.543 207.388 123.931 207.775 125.371C208.161 126.812 208.298 128.129 208.185 129.324C207.971 131.594 207.25 133.276 206.022 134.37C204.794 135.465 203.303 135.933 201.55 135.775L188.822 134.629C188.921 135.28 189.187 135.867 189.62 136.388C190.097 136.872 190.701 137.288 191.431 137.635C192.166 137.942 192.971 138.135 193.847 138.214C194.724 138.293 195.505 138.323 196.189 138.304C196.878 138.246 197.469 138.158 197.962 138.042C198.495 137.93 198.968 137.812 199.381 137.688C199.834 137.568 200.224 137.483 200.55 137.432C200.92 137.345 201.265 137.316 201.583 137.344C202.3 137.409 202.935 137.707 203.488 138.239C204.04 138.77 204.51 139.536 204.898 140.534C205.128 141.077 205.281 141.593 205.355 142.082C205.433 142.53 205.454 142.954 205.416 143.352C205.303 144.547 204.711 145.498 203.64 146.204C202.609 146.915 201.158 147.387 199.288 147.62C197.414 147.893 195.143 147.909 192.474 147.669ZM189.352 129.014L196.044 129.616C196.602 129.667 197.012 129.583 197.273 129.366C197.575 129.152 197.748 128.806 197.793 128.328C197.842 127.81 197.724 127.358 197.439 126.971C197.194 126.587 196.82 126.293 196.317 126.087C195.818 125.841 195.21 125.686 194.493 125.621C193.537 125.535 192.681 125.659 191.927 125.993C191.176 126.286 190.573 126.714 190.118 127.276C189.707 127.801 189.451 128.38 189.352 129.014ZM191.512 115.051C190.795 114.987 190.206 114.633 189.744 113.989C189.283 113.345 188.911 112.387 188.629 111.117C188.269 109.398 188.285 108.154 188.679 107.387C189.077 106.579 190.013 106.021 191.489 105.712L202.789 103.476C203.506 103.541 204.095 103.895 204.557 104.539C205.018 105.183 205.37 106.138 205.612 107.405C206.02 109.048 206.005 110.272 205.567 111.076C205.13 111.88 204.213 112.44 202.817 112.756L191.512 115.051ZM224.454 150.548C221.466 150.279 218.981 149.574 217 148.431C215.022 147.249 213.469 145.824 212.34 144.156C211.216 142.449 210.441 140.652 210.016 138.766C209.591 136.881 209.46 135.082 209.621 133.369C209.918 130.223 210.876 127.518 212.496 125.254C214.116 122.99 216.224 121.293 218.822 120.161C221.42 119.03 224.312 118.607 227.499 118.894C229.969 119.117 232.043 119.705 233.721 120.659C235.399 121.614 236.717 122.756 237.677 124.088C238.676 125.423 239.368 126.811 239.755 128.251C240.141 129.691 240.278 131.009 240.165 132.204C239.951 134.474 239.23 136.156 238.002 137.25C236.774 138.344 235.283 138.812 233.53 138.655L220.802 137.508C220.901 138.16 221.167 138.746 221.6 139.267C222.077 139.752 222.681 140.168 223.411 140.515C224.146 140.822 224.951 141.015 225.827 141.094C226.704 141.173 227.485 141.203 228.169 141.184C228.858 141.125 229.449 141.038 229.942 140.922C230.475 140.809 230.948 140.691 231.361 140.568C231.814 140.448 232.204 140.363 232.53 140.312C232.9 140.224 233.245 140.195 233.563 140.224C234.28 140.288 234.915 140.587 235.468 141.118C236.02 141.65 236.49 142.415 236.878 143.414C237.108 143.957 237.261 144.473 237.335 144.961C237.413 145.41 237.434 145.834 237.396 146.232C237.283 147.426 236.691 148.377 235.62 149.084C234.589 149.794 233.138 150.266 231.268 150.499C229.394 150.772 227.123 150.789 224.454 150.548ZM221.332 131.893L228.024 132.496C228.582 132.546 228.992 132.463 229.253 132.245C229.555 132.031 229.728 131.686 229.773 131.208C229.822 130.69 229.704 130.238 229.419 129.85C229.174 129.467 228.8 129.172 228.297 128.966C227.798 128.721 227.19 128.565 226.473 128.501C225.517 128.415 224.661 128.539 223.907 128.872C223.156 129.166 222.553 129.594 222.098 130.155C221.687 130.68 221.431 131.26 221.332 131.893ZM252.322 152.937C251.206 152.837 249.964 152.584 248.596 152.18C247.264 151.819 245.963 151.341 244.694 150.744C243.468 150.112 242.468 149.419 241.696 148.667C240.923 147.915 240.578 147.101 240.66 146.224C240.698 145.826 240.819 145.395 241.023 144.932C241.271 144.432 241.583 143.898 241.958 143.329C242.333 142.761 242.792 142.159 243.333 141.525C243.65 141.152 243.997 140.882 244.374 140.715C244.791 140.552 245.259 140.494 245.777 140.54C246.494 140.605 247.176 140.827 247.823 141.207C248.474 141.546 249.12 141.946 249.759 142.405C250.403 142.825 251.068 143.226 251.755 143.609C252.486 143.956 253.269 144.167 254.106 144.242C254.863 144.31 255.428 144.281 255.802 144.154C256.215 144.031 256.437 143.81 256.467 143.491C256.497 143.172 256.382 142.901 256.122 142.677C255.901 142.456 255.558 142.265 255.091 142.102C254.668 141.903 254.163 141.717 253.577 141.544C252.991 141.371 252.366 141.174 251.704 140.954C251.042 140.733 250.363 140.472 249.669 140.168C248.779 139.807 247.916 139.368 247.081 138.851C246.25 138.294 245.511 137.605 244.865 136.784C244.26 135.966 243.788 135 243.451 133.885C243.154 132.774 243.079 131.442 243.226 129.889C243.421 127.818 244.062 126.129 245.15 124.821C246.238 123.513 247.751 122.585 249.691 122.037C251.631 121.489 253.976 121.339 256.725 121.586C257.402 121.647 258.076 121.748 258.745 121.889C259.415 122.029 260.081 122.21 260.743 122.43C261.445 122.654 262.122 122.936 262.773 123.275C263.467 123.579 264.158 123.922 264.845 124.305C266.259 125.075 266.932 126.039 266.863 127.198C266.797 128.317 266.268 129.454 265.275 130.609C264.726 131.323 264.173 131.855 263.618 132.207C263.106 132.522 262.591 132.657 262.073 132.61C261.436 132.553 260.756 132.311 260.032 131.884C259.309 131.458 258.546 131.027 257.743 130.594C256.941 130.16 256.121 129.905 255.284 129.83C254.806 129.787 254.382 129.809 254.013 129.896C253.686 129.947 253.434 130.065 253.256 130.25C253.082 130.395 252.983 130.587 252.961 130.826C252.919 131.264 253.025 131.635 253.278 131.939C253.574 132.206 253.953 132.441 254.416 132.644C254.919 132.849 255.484 133.041 256.11 133.218C256.776 133.398 257.482 133.582 258.227 133.77C259.248 134.022 260.279 134.376 261.321 134.832C262.407 135.251 263.378 135.82 264.234 136.54C265.09 137.259 265.744 138.202 266.197 139.367C266.65 140.532 266.791 142.011 266.622 143.803C266.303 147.188 264.925 149.654 262.489 151.202C260.093 152.754 256.704 153.332 252.322 152.937Z" fill="black"/>
<path d="M261.773 326.519L256.21 268.619L316.152 271.133L261.773 326.519Z" fill="#FFD600" stroke="black" stroke-width="3"/>
<path fill-rule="evenodd" clip-rule="evenodd" d="M234.061 198.28C237.561 212.25 237.861 219.73 237.831 224.12C237.791 229.46 236.341 231.85 230.661 233.28C227.521 234.07 159.891 245.19 157.251 244.18C154.611 243.17 150.791 240.31 150.791 240.31L143.601 241.27L134.021 203.08L140.811 200.53C140.811 200.53 142.831 196.2 144.681 194.07C146.531 191.94 211.401 169.83 214.551 169.04C220.241 167.61 222.641 169.04 225.191 173.73C227.291 177.59 230.561 184.32 234.061 198.29V198.28Z" fill="#DBF1F5" stroke="black" stroke-miterlimit="10"/>
<path fill-rule="evenodd" clip-rule="evenodd" d="M234.062 198.28C237.562 212.25 237.862 219.73 237.832 224.12C237.792 229.46 236.342 231.85 230.662 233.28C228.872 233.73 175.082 239.22 155.372 242.23L140.342 228.88C159.142 222.22 218.492 189.74 220.282 189.29C225.972 187.86 222.642 169.03 225.202 173.71C227.302 177.57 230.572 184.3 234.072 198.27L234.062 198.28Z" fill="#FEFFFF" stroke="black" stroke-miterlimit="10"/>
<path fill-rule="evenodd" clip-rule="evenodd" d="M234.061 198.28C237.561 212.25 237.861 219.73 237.831 224.12C237.791 229.46 236.341 231.85 230.661 233.28C227.521 234.07 159.891 245.19 157.251 244.18C154.611 243.17 150.791 240.31 150.791 240.31L143.601 241.27L134.021 203.08L140.811 200.53C140.811 200.53 142.831 196.2 144.681 194.07C146.531 191.94 211.401 169.83 214.551 169.04C220.241 167.61 222.641 169.04 225.191 173.73C227.291 177.59 230.561 184.32 234.061 198.29V198.28Z" fill="#B5CED4" stroke="black" stroke-linecap="round" stroke-linejoin="round"/>
<path fill-rule="evenodd" clip-rule="evenodd" d="M131.762 201.3L142.442 243.9C144.732 244.22 145.802 242.4 145.932 241.79C146.592 238.63 145.202 229.02 143.212 221.07C141.222 213.12 137.912 204 135.832 201.52C135.432 201.04 133.622 199.94 131.752 201.31L131.762 201.3Z" fill="#E4FBFF" stroke="black" stroke-miterlimit="10"/>
<path fill-rule="evenodd" clip-rule="evenodd" d="M140.953 221.63C145.433 239.48 144.083 244.66 142.883 244.96C141.683 245.26 140.943 244.14 140.943 244.14C140.943 244.14 139.043 244.95 137.763 244.62C136.913 244.4 136.813 244 136.563 243.78C136.273 243.52 135.743 243.74 135.533 243.89C135.193 244.14 134.943 244.6 134.383 244.67C133.643 244.77 133.263 244.12 132.213 244.66C131.163 245.2 127.363 246.81 126.053 246.3C124.743 245.79 119.243 239.51 116.303 227.81C113.373 216.11 115.253 207.98 116.173 206.91C116.723 206.27 118.463 206.06 119.953 205.66C121.523 205.24 122.413 205.74 123.053 205.86C123.273 205.9 123.713 205.86 124.003 205.58C124.433 205.16 124.763 204.69 125.463 204.46C126.243 204.21 126.763 204.47 127.363 204.43C127.653 204.41 128.003 204.39 128.293 204.02C128.863 203.31 129.453 202 130.303 201.78C130.303 201.78 130.423 200.45 131.623 200.14C132.823 199.84 136.453 203.77 140.933 221.62L140.953 221.63Z" fill="#849DA3" stroke="black" stroke-miterlimit="10"/>
<path fill-rule="evenodd" clip-rule="evenodd" d="M136.582 243.78C136.342 243.61 135.802 243.73 135.552 243.89C134.062 237.69 128.242 214.25 122.982 205.85C123.292 205.93 123.782 205.74 124.042 205.57C125.452 208.1 128.782 215.05 131.722 224.77C134.652 234.49 135.852 240.11 136.582 243.79V243.78Z" fill="#668085" stroke="black" stroke-miterlimit="10"/>
<path fill-rule="evenodd" clip-rule="evenodd" d="M118.652 223.02C118.062 220.67 119.292 220.06 119.952 222.69C120.612 225.33 119.242 225.37 118.652 223.02ZM120.932 230.85C121.522 233.2 122.892 233.16 122.232 230.52C121.572 227.88 120.342 228.49 120.932 230.85ZM120.682 236.4C121.702 238.43 122.442 237.83 121.712 236.04C120.972 234.25 119.762 234.05 120.682 236.4ZM116.112 218.17C116.052 215.9 116.992 216.07 117.192 218C117.392 219.93 116.412 220.68 116.112 218.17ZM118.062 227.37C117.842 226.51 117.852 225.76 118.072 225.71C118.292 225.65 118.652 226.3 118.872 227.17C119.092 228.03 119.082 228.78 118.852 228.83C118.632 228.89 118.272 228.23 118.062 227.37ZM118.372 232.21C118.152 231.35 118.162 230.6 118.392 230.55C118.612 230.49 118.972 231.14 119.192 232.01C119.412 232.87 119.402 233.62 119.172 233.67C118.952 233.73 118.592 233.08 118.372 232.21ZM116.332 222.89C116.112 222.03 116.122 221.28 116.342 221.22C116.562 221.16 116.922 221.82 117.132 222.68C117.352 223.54 117.342 224.28 117.122 224.34C116.902 224.4 116.542 223.74 116.322 222.88L116.332 222.89Z" fill="#668085" stroke="black" stroke-linejoin="round"/>
<path fill-rule="evenodd" clip-rule="evenodd" d="M141.872 244.89C141.482 244.73 141.202 244.45 141.052 244.28C141.862 241.27 140.792 232.45 138.252 222.3C135.712 212.15 132.492 203.87 130.352 201.6C130.402 201.38 130.512 201 130.782 200.68C134.282 204.76 137.102 213.37 139.272 222.05C141.452 230.73 143.062 238.41 141.862 244.9L141.872 244.89Z" fill="#BCC8CC" stroke="black" stroke-miterlimit="10"/>
<path fill-rule="evenodd" clip-rule="evenodd" d="M133.493 244.39C133.253 244.22 132.713 244.34 132.463 244.5C130.943 238.19 125.023 214.34 119.723 205.77C120.033 205.85 120.523 205.66 120.783 205.49C122.203 208.07 125.573 215.15 128.553 225.04C131.533 234.93 132.753 240.65 133.493 244.4V244.39Z" fill="#668085" stroke="black" stroke-linejoin="bevel"/>
<path fill-rule="evenodd" clip-rule="evenodd" d="M75.9729 255.74C75.8629 255.5 78.3229 254.7 78.7129 254.62C79.1029 254.54 80.1629 256.66 80.4529 257.21C80.7429 257.76 79.8329 258.4 79.3429 258.7C78.8429 259 78.3129 258.76 77.4829 259.07C76.6429 259.38 76.5229 259.22 76.5229 259.22C76.5229 259.22 74.8329 256.46 75.9829 255.74H75.9729Z" fill="#EEF0F0" stroke="black" stroke-linecap="round" stroke-linejoin="round"/>
<path fill-rule="evenodd" clip-rule="evenodd" d="M105.103 228.07C105.023 227.49 106.403 226.7 107.013 226.62C107.623 226.55 108.013 227.2 108.013 227.2C108.013 227.2 108.413 227.29 108.743 227.46C109.073 227.63 109.753 228.9 109.103 229.22C108.453 229.54 107.913 230.23 107.923 230.61C107.933 230.99 106.543 231.62 106.273 231.11C105.993 230.6 106.593 230.17 105.823 229.81C105.053 229.45 105.113 228.06 105.113 228.06L105.103 228.07Z" fill="#EEF0F0" stroke="black" stroke-linecap="round" stroke-linejoin="round"/>
<path fill-rule="evenodd" clip-rule="evenodd" d="M100.413 248.08C99.9031 247.8 100.083 246.22 100.383 245.68C100.693 245.14 101.443 245.23 101.443 245.23C101.443 245.23 101.753 244.96 102.083 244.8C102.413 244.64 103.843 244.85 103.713 245.56C103.583 246.27 103.823 247.11 104.133 247.33C104.443 247.55 104.133 249.04 103.553 248.96C102.973 248.88 102.993 248.14 102.243 248.55C101.493 248.96 100.413 248.08 100.413 248.08Z" fill="#EEF0F0" stroke="black" stroke-linecap="round" stroke-linejoin="round"/>
<path fill-rule="evenodd" clip-rule="evenodd" d="M99.0815 254.33C99.0015 253.75 100.381 252.96 100.991 252.88C101.601 252.81 101.991 253.46 101.991 253.46C101.991 253.46 102.391 253.55 102.711 253.72C103.041 253.89 103.721 255.16 103.071 255.48C102.421 255.8 101.881 256.49 101.891 256.87C101.901 257.25 100.511 257.88 100.241 257.37C99.9615 256.86 100.561 256.43 99.7915 256.07C99.0215 255.71 99.0815 254.32 99.0815 254.32V254.33Z" fill="#EEF0F0" stroke="black" stroke-linecap="round" stroke-linejoin="round"/>
<path fill-rule="evenodd" clip-rule="evenodd" d="M106.393 263.66C106.623 263.12 105.513 261.99 104.943 261.75C104.373 261.51 103.823 262.04 103.823 262.04C103.823 262.04 103.413 262.02 103.053 262.09C102.693 262.17 101.693 263.2 102.233 263.69C102.763 264.18 103.103 264.98 102.983 265.35C102.873 265.71 104.033 266.7 104.443 266.28C104.853 265.86 104.393 265.29 105.233 265.15C106.073 265.01 106.393 263.66 106.393 263.66Z" fill="#EEF0F0" stroke="black" stroke-linecap="round" stroke-linejoin="round"/>
<path fill-rule="evenodd" clip-rule="evenodd" d="M97.6432 241C97.8532 240.88 100.713 244.1 100.713 244.1C100.713 244.1 100.383 244.52 100.173 244.61C99.9632 244.7 99.7232 244.88 99.7532 245.03C99.7832 245.18 99.4732 245.65 99.2432 245.75C99.0232 245.86 98.5832 245.9 98.4632 246.02C98.3432 246.14 98.0732 246.08 97.4132 245.7C96.7532 245.31 95.6132 244.99 95.7132 244.41C95.8132 243.83 95.1532 242.84 95.3432 242.49C95.5332 242.14 95.7732 241.99 95.7732 241.99C95.7732 241.99 96.5432 241.24 96.6832 241.13C96.8132 241.02 96.8832 241.35 97.1132 241.26C97.3532 241.17 97.6232 240.99 97.6232 240.99L97.6432 241Z" fill="#EEF0F0" stroke="black" stroke-linecap="round" stroke-linejoin="round"/>
<path fill-rule="evenodd" clip-rule="evenodd" d="M96.933 235.32C97.453 235.9 98.563 236.84 99.043 237.05C99.523 237.26 99.093 237.96 98.383 238.51C97.673 239.06 97.163 239.41 96.913 239.49C96.663 239.57 96.413 239.26 96.213 238.6C96.013 237.94 95.853 237.13 96.133 236.58C96.413 236.03 95.963 235.85 96.243 235.57C96.523 235.29 96.923 235.32 96.923 235.32H96.933Z" fill="#EEF0F0" stroke="black" stroke-linecap="round" stroke-linejoin="round"/>
<path fill-rule="evenodd" clip-rule="evenodd" d="M93.6121 264.24C92.9021 264.55 91.6621 265.31 91.3121 265.7C90.9621 266.09 90.4321 265.47 90.1321 264.62C89.8321 263.77 89.6621 263.18 89.6621 262.92C89.6621 262.66 90.0321 262.52 90.7321 262.53C91.4221 262.55 92.2421 262.66 92.6721 263.09C93.1021 263.53 93.4121 263.16 93.6021 263.51C93.7821 263.86 93.6321 264.23 93.6321 264.23L93.6121 264.24Z" fill="#EEF0F0" stroke="black" stroke-linecap="round" stroke-linejoin="round"/>
<path fill-rule="evenodd" clip-rule="evenodd" d="M78.2532 260.65C78.9932 260.89 80.4232 261.15 80.9432 261.09C81.4632 261.03 81.4432 261.85 81.1032 262.68C80.7632 263.51 80.4932 264.07 80.3232 264.27C80.1532 264.47 79.7732 264.32 79.2732 263.85C78.7632 263.38 78.2332 262.75 78.1932 262.14C78.1632 261.53 77.6832 261.59 77.7832 261.21C77.8832 260.83 78.2432 260.65 78.2432 260.65H78.2532Z" fill="#EEF0F0" stroke="black" stroke-linecap="round" stroke-linejoin="round"/>
<path fill-rule="evenodd" clip-rule="evenodd" d="M104.753 241.33C105.493 241.57 106.923 241.83 107.443 241.77C107.963 241.71 107.943 242.53 107.603 243.36C107.263 244.19 106.993 244.75 106.823 244.95C106.653 245.15 106.273 245 105.773 244.53C105.263 244.06 104.733 243.43 104.693 242.82C104.663 242.21 104.183 242.27 104.283 241.89C104.383 241.51 104.743 241.33 104.743 241.33H104.753Z" fill="#EEF0F0" stroke="black" stroke-linecap="round" stroke-linejoin="round"/>
<path fill-rule="evenodd" clip-rule="evenodd" d="M106.962 235.38C107.022 235.12 109.463 235.96 109.823 236.12C110.183 236.28 109.753 238.62 109.663 239.24C109.563 239.86 108.453 239.82 107.883 239.77C107.303 239.71 107.023 239.2 106.173 238.94C105.313 238.69 105.312 238.49 105.312 238.49C105.312 238.49 105.612 235.27 106.962 235.38Z" fill="#EEF0F0" stroke="black" stroke-linecap="round" stroke-linejoin="round"/>
<path fill-rule="evenodd" clip-rule="evenodd" d="M93.362 245.94C92.782 245.43 91.832 244.32 91.612 243.85C91.392 243.37 90.702 243.81 90.162 244.52C89.622 245.23 89.272 245.75 89.192 246C89.112 246.25 89.422 246.5 90.092 246.69C90.752 246.89 91.572 247.03 92.112 246.75C92.662 246.47 92.842 246.91 93.122 246.63C93.402 246.35 93.362 245.95 93.362 245.95V245.94Z" fill="#EEF0F0" stroke="black" stroke-linecap="round" stroke-linejoin="round"/>
<path fill-rule="evenodd" clip-rule="evenodd" d="M114.252 244.56C114.462 244.07 115.182 242.54 115.132 242.17C115.082 241.8 113.602 240.84 113.302 240.68C112.992 240.52 112.132 240.92 111.732 241.04C111.332 241.16 110.802 242.73 110.592 243.08C110.382 243.43 113.412 244.99 114.252 244.56Z" fill="#EEF0F0" stroke="black" stroke-linecap="round" stroke-linejoin="round"/>
<path fill-rule="evenodd" clip-rule="evenodd" d="M110.762 250.62C110.982 250.72 109.952 254.91 109.952 254.91C109.952 254.91 109.422 254.88 109.222 254.76C109.032 254.64 108.742 254.54 108.642 254.65C108.532 254.76 107.972 254.77 107.762 254.65C107.552 254.53 107.262 254.2 107.092 254.16C106.922 254.13 106.822 253.87 106.762 253.11C106.702 252.35 106.322 251.22 106.862 250.98C107.402 250.73 107.832 249.63 108.232 249.59C108.622 249.55 108.882 249.66 108.882 249.66C108.882 249.66 109.942 249.87 110.102 249.92C110.262 249.97 110.032 250.21 110.242 250.35C110.452 250.49 110.752 250.61 110.752 250.61L110.762 250.62Z" fill="#EEF0F0" stroke="black" stroke-linecap="round" stroke-linejoin="round"/>
<path fill-rule="evenodd" clip-rule="evenodd" d="M97.8817 260.93C97.7217 260.79 97.3817 260.36 97.0817 260.17C96.7817 259.97 96.0717 260.75 95.5517 261.12C95.0317 261.5 94.7917 262.3 94.7317 262.47C94.6617 262.64 94.8617 263.66 94.8617 263.66C94.8617 263.66 96.7717 265.4 96.9917 265.47C97.2117 265.54 98.1417 264.69 98.0917 264.47C98.0417 264.25 97.9417 263.51 97.7717 263.28C97.5917 263.05 98.0317 262.68 98.0317 262.68C98.0317 262.68 97.7217 262.41 97.8117 262.09C97.9017 261.76 97.8817 260.93 97.8817 260.93Z" fill="#E4E5E6" stroke="black" stroke-linecap="round" stroke-linejoin="round"/>
<path fill-rule="evenodd" clip-rule="evenodd" d="M84.3328 247.2C84.1728 247.06 83.8328 246.63 83.5328 246.44C83.2328 246.24 82.5228 247.02 82.0028 247.39C81.4828 247.77 81.2428 248.57 81.1828 248.74C81.1128 248.91 81.3128 249.93 81.3128 249.93C81.3128 249.93 83.2228 251.67 83.4428 251.74C83.6628 251.81 84.5928 250.96 84.5428 250.74C84.4928 250.52 84.3928 249.78 84.2228 249.55C84.0428 249.32 84.4828 248.95 84.4828 248.95C84.4828 248.95 84.1728 248.68 84.2628 248.36C84.3528 248.03 84.3328 247.2 84.3328 247.2Z" fill="#E4E5E6" stroke="black" stroke-linecap="round" stroke-linejoin="round"/>
<path fill-rule="evenodd" clip-rule="evenodd" d="M91.1217 254.1C91.0817 254.36 93.6717 254.43 94.0617 254.4C94.4517 254.38 94.8717 252.03 95.0017 251.42C95.1217 250.81 94.0717 250.45 93.5117 250.31C92.9517 250.16 92.5117 250.55 91.6217 250.49C90.7317 250.43 90.6617 250.61 90.6617 250.61C90.6617 250.61 89.8217 253.73 91.1317 254.1H91.1217Z" fill="#EEF0F0" stroke="black" stroke-linecap="round" stroke-linejoin="round"/>
<path fill-rule="evenodd" clip-rule="evenodd" d="M90.2516 269.97C90.0116 269.87 89.2716 272.35 89.1916 272.73C89.1116 273.11 91.2616 274.13 91.8216 274.41C92.3816 274.69 93.0016 273.77 93.2916 273.26C93.5816 272.76 93.3216 272.23 93.6116 271.39C93.9016 270.55 93.7416 270.43 93.7416 270.43C93.7416 270.43 90.9516 268.8 90.2516 269.97Z" fill="#EEF0F0" stroke="black" stroke-linecap="round" stroke-linejoin="round"/>
<path fill-rule="evenodd" clip-rule="evenodd" d="M87.4217 256.81C87.1917 256.68 86.1917 259.07 86.0617 259.44C85.9417 259.81 87.9717 261.06 88.4917 261.4C89.0117 261.74 89.7317 260.89 90.0717 260.42C90.4117 259.95 90.2217 259.4 90.6017 258.59C90.9817 257.78 90.8317 257.65 90.8317 257.65C90.8317 257.65 88.2317 255.73 87.4117 256.81H87.4217Z" fill="#EEF0F0" stroke="black" stroke-linecap="round" stroke-linejoin="round"/>
<path d="M72.6875 62.8573C70.8949 62.6947 69.6447 62.3202 68.937 61.7338C68.2331 61.1077 67.8412 60.3693 67.7613 59.5186C67.6852 58.6281 67.6888 57.7448 67.7721 56.8687L70.7009 26.0476C70.7841 25.1715 70.9452 24.3226 71.184 23.5008C71.4228 22.679 71.9452 22.0437 72.7513 21.5947C73.5612 21.1058 74.8823 20.9446 76.7148 21.1108L88.7255 22.2005C90.2393 22.3378 91.8423 22.8046 93.5346 23.6007C95.2306 24.357 96.7949 25.4428 98.2274 26.858C99.6599 28.2732 100.783 29.9817 101.598 31.9835C102.412 33.9852 102.694 36.3002 102.444 38.9283C102.27 40.7601 101.829 42.4471 101.12 43.9893C100.45 45.5351 99.5157 46.9163 98.3152 48.1328C97.1584 49.3131 95.7758 50.3323 94.1674 51.1905C92.6026 52.0125 90.8377 52.6155 88.8725 52.9995L79.2521 52.1266L78.7015 57.9205C78.6182 58.7966 78.4572 59.6455 78.2184 60.4673C77.9796 61.2891 77.4553 61.9444 76.6454 62.4332C75.8393 62.8822 74.52 63.0236 72.6875 62.8573ZM97.8609 63.6953C95.9396 64.8865 94.4744 65.2958 93.4651 64.9231C92.4521 64.5902 91.4237 63.5731 90.38 61.8719L80.8041 45.9416L93.3806 45.5163L99.8423 56.1636C100.529 57.3906 100.935 58.4114 101.058 59.2259C101.221 60.044 101.05 60.7916 100.544 61.4686C100.037 62.1456 99.1431 62.8878 97.8609 63.6953ZM80.2851 41.2556L86.8581 41.852C87.2166 41.8845 87.6406 41.8627 88.13 41.7866C88.663 41.6743 89.1637 41.4788 89.6322 41.1999C90.1044 40.8813 90.5065 40.4559 90.8383 39.9237C91.21 39.3951 91.4356 38.7127 91.515 37.8765C91.5945 37.0403 91.4653 36.2855 91.1275 35.6122C90.7934 34.8992 90.3048 34.3327 89.6617 33.9129C89.0621 33.4568 88.364 33.1927 87.5673 33.1204L81.1138 32.5349L80.2851 41.2556ZM117.195 67.6182C114.208 67.3472 111.723 66.6398 109.743 65.4962C107.766 64.3127 106.214 62.8867 105.087 61.218C103.963 59.5096 103.19 57.7123 102.766 55.8264C102.343 53.9404 102.212 52.1413 102.375 50.429C102.674 47.2832 103.634 44.5789 105.256 42.3161C106.877 40.0534 108.987 38.3571 111.585 37.2273C114.184 36.0975 117.077 35.6771 120.263 35.9663C122.733 36.1903 124.807 36.7801 126.484 37.7355C128.161 38.691 129.479 39.8347 130.437 41.1667C131.435 42.5024 132.127 43.8905 132.512 45.3312C132.898 46.7719 133.034 48.0896 132.92 49.2842C132.705 51.554 131.982 53.2356 130.753 54.329C129.524 55.4224 128.033 55.8896 126.281 55.7306L113.553 54.5759C113.652 55.2275 113.917 55.8139 114.35 56.3351C114.826 56.8201 115.43 57.2363 116.16 57.5837C116.894 57.8913 117.7 58.0849 118.576 58.1644C119.452 58.2439 120.233 58.2746 120.918 58.2564C121.606 58.1983 122.197 58.1114 122.69 57.9955C123.223 57.8832 123.697 57.7654 124.11 57.6423C124.563 57.5228 124.953 57.4376 125.279 57.3869C125.649 57.3 125.994 57.271 126.312 57.2999C127.029 57.3649 127.664 57.6635 128.216 58.1956C128.768 58.7276 129.238 59.4932 129.625 60.4922C129.855 61.0352 130.007 61.551 130.081 62.0397C130.159 62.4886 130.179 62.9121 130.141 63.3103C130.027 64.505 129.435 65.4553 128.363 66.1614C127.331 66.871 125.88 67.3418 124.01 67.5738C122.136 67.8456 119.864 67.8604 117.195 67.6182ZM114.086 48.9612L120.779 49.5684C121.337 49.619 121.746 49.5356 122.008 49.3184C122.31 49.1048 122.483 48.759 122.529 48.2812C122.578 47.7635 122.46 47.311 122.175 46.9237C121.931 46.5401 121.557 46.2451 121.054 46.0388C120.555 45.7927 119.947 45.6372 119.23 45.5721C118.274 45.4854 117.419 45.6086 116.664 45.9417C115.913 46.2351 115.309 46.6623 114.854 47.2235C114.443 47.7484 114.187 48.3277 114.086 48.9612ZM149.148 70.1556C147.514 70.0075 145.812 69.5317 144.04 68.7283C142.312 67.8887 140.711 66.7595 139.239 65.3407C137.77 63.882 136.631 62.1319 135.82 60.0904C135.01 58.0488 134.728 55.7338 134.973 53.1455C135.216 50.597 135.926 48.4122 137.103 46.5912C138.284 44.7303 139.712 43.2332 141.387 42.0999C143.102 40.9702 144.886 40.1681 146.739 39.6936C148.636 39.183 150.381 38.9999 151.974 39.1445C153.488 39.2818 154.787 39.5603 155.872 39.9801C156.958 40.3999 157.84 40.8414 158.519 41.3046C159.202 41.7281 159.693 42.0538 159.993 42.2818C160.745 42.832 161.429 43.4563 162.045 44.1549C162.705 44.8172 162.986 45.6661 162.888 46.7014C162.839 47.2191 162.688 47.7476 162.436 48.2871C162.188 48.7866 161.812 49.355 161.31 49.9922C159.667 52.0523 158.129 53.0172 156.695 52.8871C156.058 52.8293 155.51 52.6791 155.05 52.4367C154.595 52.1544 154.181 51.8558 153.81 51.5409C153.438 51.226 153.022 50.9473 152.563 50.7049C152.148 50.4262 151.601 50.2561 150.924 50.1947C150.127 50.1224 149.371 50.2546 148.656 50.5914C147.941 50.9282 147.352 51.4169 146.89 52.0578C146.431 52.6587 146.162 53.3774 146.082 54.2136C146.003 55.0498 146.13 55.8245 146.464 56.5376C146.798 57.2507 147.265 57.8352 147.864 58.2913C148.504 58.7509 149.202 59.0151 149.959 59.0837C150.517 59.1343 150.98 59.1162 151.35 59.0292C151.76 58.9459 152.07 58.8536 152.281 58.7522C152.495 58.611 152.622 58.5422 152.662 58.5458C153.25 58.2778 153.796 58.0261 154.301 57.7908C154.845 57.559 155.376 57.4666 155.894 57.5136C156.571 57.575 157.244 57.8971 157.912 58.4798C158.583 59.0227 159.304 59.8914 160.075 61.0859C160.813 62.1972 161.178 63.2143 161.171 64.1374C161.207 65.0243 160.909 65.8407 160.275 66.5865C159.646 67.2925 158.719 67.9515 157.496 68.5634C157.369 68.6322 156.928 68.8332 156.173 69.1664C155.462 69.4633 154.511 69.7386 153.322 69.9921C152.133 70.2457 150.741 70.3002 149.148 70.1556ZM179.226 73.246C176.238 72.9749 173.754 72.2675 171.773 71.1239C169.796 69.9405 168.244 68.5144 167.117 66.8458C165.994 65.1373 165.22 63.3401 164.797 61.4541C164.373 59.5681 164.243 57.769 164.406 56.0567C164.705 52.9109 165.665 50.2066 167.286 47.9439C168.907 45.6811 171.017 43.9848 173.616 42.855C176.214 41.7252 179.107 41.3049 182.294 41.594C184.764 41.8181 186.837 42.4078 188.514 43.3633C190.191 44.3187 191.509 45.4624 192.467 46.7944C193.466 48.1301 194.157 49.5182 194.543 50.959C194.928 52.3997 195.064 53.7173 194.951 54.9119C194.735 57.1817 194.013 58.8633 192.784 59.9567C191.555 61.0502 190.064 61.5174 188.311 61.3583L175.583 60.2036C175.682 60.8552 175.948 61.4416 176.38 61.9628C176.857 62.4478 177.46 62.864 178.19 63.2115C178.925 63.519 179.73 63.7126 180.606 63.7921C181.483 63.8716 182.263 63.9023 182.948 63.8841C183.637 63.8261 184.228 63.7391 184.721 63.6232C185.254 63.5109 185.727 63.3932 186.14 63.27C186.594 63.1505 186.984 63.0654 187.31 63.0146C187.68 62.9277 188.024 62.8987 188.343 62.9276C189.06 62.9927 189.694 63.2912 190.247 63.8233C190.799 64.3553 191.268 65.1209 191.656 66.12C191.885 66.6629 192.037 67.1788 192.111 67.6674C192.189 68.1163 192.209 68.5399 192.171 68.9381C192.058 70.1327 191.465 71.083 190.394 71.7891C189.362 72.4988 187.911 72.9696 186.041 73.2015C184.166 73.4733 181.895 73.4881 179.226 73.246ZM176.117 54.5889L182.809 55.1961C183.367 55.2467 183.777 55.1634 184.039 54.9461C184.34 54.7325 184.514 54.3868 184.559 53.9089C184.608 53.3912 184.49 52.9388 184.206 52.5515C183.961 52.1678 183.587 51.8728 183.085 51.6665C182.586 51.4204 181.978 51.2649 181.261 51.1998C180.304 51.1131 179.449 51.2363 178.694 51.5694C177.943 51.8628 177.34 52.29 176.885 52.8512C176.473 53.3761 176.217 53.9554 176.117 54.5889ZM211.804 75.5389C209.175 75.3004 206.988 74.6401 205.242 73.5579C203.5 72.436 202.217 70.9339 201.391 69.0516C200.605 67.1729 200.334 64.9593 200.576 62.4108L201.297 54.825L199.851 54.8143C198.537 54.6951 197.64 54.192 197.162 53.3052C196.687 52.3785 196.541 50.9595 196.723 49.0481C196.9 47.1766 197.328 45.8498 198.005 45.0677C198.686 44.2459 199.703 43.8964 201.058 44.0193L202.301 44.2526L202.778 39.2352C202.865 38.3193 203.024 37.4903 203.255 36.7482C203.49 35.9662 204.009 35.3707 204.811 34.9615C205.618 34.5125 206.917 34.3693 208.71 34.5319C210.462 34.691 211.691 35.0836 212.395 35.7097C213.102 36.2961 213.496 37.0146 213.576 37.8653C213.656 38.7159 213.654 39.5793 213.571 40.4554L213.123 45.1741C213.561 45.2139 214.178 45.2699 214.975 45.3422C215.815 45.3783 216.654 45.4342 217.49 45.5101C218.327 45.586 219.102 45.6764 219.815 45.7813C220.532 45.8464 221.09 45.897 221.488 45.9331L221.959 40.9754C222.046 40.0596 222.205 39.2305 222.437 38.4884C222.672 37.7065 223.19 37.1109 223.993 36.7017C224.799 36.2527 226.098 36.1095 227.891 36.2722C229.644 36.4312 230.852 36.822 231.516 37.4445C232.224 38.0309 232.618 38.7494 232.697 39.6001C232.777 40.4507 232.776 41.3141 232.692 42.1902L232.233 47.0284L235.417 47.1365C236.293 47.216 237.122 47.3716 237.904 47.6031C238.725 47.8383 239.359 48.3577 239.805 49.1613C240.291 49.9685 240.446 51.2879 240.272 53.1197C240.102 54.9116 239.702 56.1606 239.073 56.8666C238.443 57.5725 237.702 57.9672 236.851 58.0506C236.043 58.0978 235.2 58.0816 234.324 58.0021L231.234 57.541L230.564 64.5893C230.507 65.1866 230.503 65.6481 230.553 65.9739C230.642 66.3033 230.799 66.5585 231.023 66.7395C231.25 66.8806 231.563 66.9693 231.962 67.0054C233.037 67.103 233.966 67.2676 234.747 67.4991C235.569 67.7343 236.166 68.2103 236.54 68.927C236.954 69.6473 237.085 70.8039 236.934 72.3967C236.764 74.1886 236.364 75.4376 235.734 76.1436C235.104 76.8496 234.366 77.2243 233.518 77.2679C232.666 77.3513 231.822 77.355 230.985 77.2791C228.356 77.0406 226.149 76.3785 224.364 75.2927C222.622 74.1708 221.358 72.6705 220.572 70.7918C219.787 68.9131 219.515 66.6995 219.757 64.151L220.478 56.5652C220.199 56.5399 219.819 56.5255 219.337 56.5219C218.895 56.522 218.433 56.5202 217.951 56.5167C217.473 56.4733 217.015 56.4318 216.577 56.392C215.939 56.3342 215.164 56.2438 214.252 56.1209C213.34 55.9979 212.626 55.893 212.112 55.8062L211.442 62.8545C211.386 63.4518 211.382 63.9133 211.431 64.2391C211.521 64.5685 211.677 64.8237 211.901 65.0047C212.129 65.1458 212.442 65.2345 212.84 65.2706C213.876 65.3646 214.785 65.5274 215.566 65.7589C216.388 65.9941 216.985 66.47 217.359 67.1868C217.773 67.9071 217.904 69.0636 217.753 70.6565C217.582 72.4484 217.182 73.6974 216.553 74.4034C215.923 75.1093 215.184 75.4841 214.336 75.5277C213.485 75.6111 212.641 75.6148 211.804 75.5389ZM255.32 80.1496C252.332 79.8785 249.848 79.1712 247.867 78.0275C245.89 76.8441 244.338 75.418 243.211 73.7494C242.087 72.0409 241.314 70.2437 240.89 68.3577C240.467 66.4717 240.337 64.6726 240.499 62.9603C240.798 59.8145 241.758 57.1102 243.38 54.8475C245.001 52.5847 247.111 50.8885 249.709 49.7586C252.308 48.6288 255.201 48.2085 258.388 48.4976C260.857 48.7217 262.931 49.3114 264.608 50.2669C266.285 51.2223 267.603 52.366 268.561 53.6981C269.559 55.0337 270.251 56.4219 270.636 57.8626C271.022 59.3033 271.158 60.6209 271.044 61.8156C270.829 64.0853 270.106 65.7669 268.877 66.8604C267.648 67.9538 266.158 68.421 264.405 68.262L251.677 67.1072C251.776 67.7588 252.042 68.3452 252.474 68.8664C252.95 69.3514 253.554 69.7677 254.284 70.1151C255.018 70.4227 255.824 70.6162 256.7 70.6957C257.576 70.7752 258.357 70.8059 259.042 70.7877C259.73 70.7297 260.321 70.6427 260.814 70.5268C261.347 70.4145 261.821 70.2968 262.234 70.1736C262.688 70.0541 263.077 69.969 263.404 69.9183C263.773 69.8313 264.118 69.8023 264.436 69.8312C265.154 69.8963 265.788 70.1948 266.34 70.7269C266.892 71.259 267.362 72.0245 267.749 73.0236C267.979 73.5665 268.131 74.0824 268.205 74.5711C268.283 75.0199 268.303 75.4435 268.265 75.8417C268.151 77.0363 267.559 77.9866 266.487 78.6927C265.456 79.4024 264.005 79.8732 262.134 80.1051C260.26 80.3769 257.989 80.3917 255.32 80.1496ZM252.211 61.4925L258.903 62.0997C259.461 62.1503 259.871 62.067 260.132 61.8497C260.434 61.6361 260.607 61.2904 260.653 60.8125C260.702 60.2949 260.584 59.8424 260.3 59.4551C260.055 59.0714 259.681 58.7764 259.178 58.5702C258.679 58.3241 258.071 58.1685 257.354 58.1034C256.398 58.0167 255.543 58.1399 254.788 58.4731C254.037 58.7664 253.434 59.1936 252.978 59.7548C252.567 60.2798 252.311 60.859 252.211 61.4925ZM283.186 82.5573C282.07 82.4561 280.829 82.2028 279.461 81.7976C278.129 81.4358 276.829 80.9563 275.56 80.3592C274.334 79.7259 273.335 79.0328 272.563 78.28C271.791 77.5271 271.446 76.7127 271.529 75.8366C271.567 75.4384 271.689 75.0076 271.893 74.5442C272.142 74.0446 272.454 73.5106 272.829 72.9422C273.205 72.3738 273.663 71.7728 274.206 71.1393C274.523 70.7664 274.87 70.4966 275.247 70.33C275.664 70.1671 276.132 70.1091 276.65 70.1561C277.367 70.2211 278.049 70.4437 278.696 70.8237C279.347 71.1639 279.992 71.5638 280.631 72.0234C281.274 72.4432 281.939 72.845 282.626 73.2286C283.356 73.576 284.14 73.7877 284.976 73.8636C285.733 73.9322 286.298 73.9032 286.672 73.7764C287.086 73.6533 287.308 73.4324 287.338 73.1139C287.368 72.7953 287.253 72.5238 286.993 72.2994C286.773 72.0786 286.43 71.8868 285.963 71.724C285.54 71.5249 285.035 71.3386 284.449 71.1649C283.863 70.9912 283.239 70.794 282.577 70.5733C281.915 70.3526 281.237 70.0902 280.542 69.7863C279.652 69.4244 278.79 68.9847 277.955 68.4672C277.124 67.9098 276.386 67.2203 275.741 66.3986C275.136 65.5806 274.665 64.6141 274.329 63.4992C274.033 62.3879 273.959 61.0558 274.106 59.5028C274.303 57.4321 274.946 55.7433 276.034 54.4363C277.123 53.1293 278.637 52.2024 280.578 51.6555C282.518 51.1086 284.863 50.9598 287.611 51.2092C288.288 51.2706 288.962 51.3719 289.632 51.513C290.301 51.654 290.967 51.8349 291.629 52.0557C292.331 52.28 293.007 52.5623 293.658 52.9024C294.352 53.2064 295.043 53.5502 295.73 53.9338C297.143 54.7047 297.815 55.6693 297.745 56.8277C297.679 57.9463 297.149 59.0831 296.155 60.238C295.605 60.9512 295.053 61.4835 294.497 61.8347C293.985 62.1497 293.47 62.2837 292.952 62.2367C292.315 62.1789 291.634 61.9365 290.912 61.5094C290.189 61.0824 289.426 60.6517 288.624 60.2174C287.821 59.7831 287.002 59.528 286.165 59.4521C285.687 59.4088 285.263 59.4305 284.893 59.5175C284.567 59.5682 284.315 59.6859 284.136 59.8705C283.962 60.0154 283.863 60.2072 283.841 60.4462C283.799 60.8842 283.904 61.2552 284.157 61.5593C284.453 61.8271 284.832 62.0624 285.295 62.265C285.798 62.4713 286.362 62.663 286.988 62.8403C287.654 63.0212 288.36 63.2058 289.105 63.3939C290.126 63.6471 291.157 64.0017 292.198 64.4577C293.284 64.8775 294.254 65.4475 295.11 66.1677C295.965 66.888 296.619 67.8309 297.071 68.9965C297.523 70.1621 297.663 71.6408 297.493 73.4327C297.171 76.8175 295.792 79.2829 293.355 80.829C290.958 82.3787 287.568 82.9548 283.186 82.5573Z" fill="black"/>
</svg>
