<svg width="396" height="387" viewBox="0 0 396 387" fill="none" xmlns="http://www.w3.org/2000/svg">
<path d="M97.9604 384.641L2.54089 95.4765L298.525 2.22717L373.657 229.911L344.237 307.052L245.952 338.016L97.9604 384.641Z" fill="#F3BBE3" stroke="black" stroke-width="3"/>
<path d="M271.584 179.337C266.103 182.911 262.303 187.991 258.713 193.366C253.91 200.551 248.732 208.049 245.487 216.11C241.726 225.442 248.352 235.568 256.397 240.454C257.494 241.118 258.439 240.308 258.628 239.328C269.978 241.816 282.887 239.89 294.452 238.179C308.813 236.054 303.072 232.428 298.519 226.505C294.895 222.694 292.519 218.965 293.102 215.83C293.735 212.389 298.857 206.07 296.951 203.569C292.248 197.42 284.765 201.989 279.93 195.947C275.02 189.807 281.366 186.336 277.543 180.433C275.122 178.53 272.35 178.824 271.592 179.325L271.584 179.337Z" fill="#00E6FB" stroke="black" stroke-miterlimit="10"/>
<path d="M189.372 255.269C173.523 256.207 157.892 258.844 142.407 262.243C141.709 262.394 141.036 263.2 141.285 263.957C144.594 273.996 149.849 265.787 152.501 285.875C153.111 290.49 159.241 292.666 163.53 294.571C166.076 295.708 169.324 296.495 171.196 298.301C174.422 301.433 180.69 312.623 186.121 306.964C190.315 302.594 193.066 295.683 195.907 290.377C199.049 284.545 201.631 278.442 204.499 272.478C204.726 271.992 204.421 271.437 204.052 271.129C198.918 266.944 194.24 262.815 191.403 256.701C191.173 256.191 190.756 255.989 190.343 255.975C190.209 255.557 189.886 255.227 189.367 255.249L189.372 255.269Z" fill="#00E6FB" stroke="black" stroke-miterlimit="10"/>
<path d="M208.284 218.427C195.199 225.57 187.386 240.706 186.844 255.272C186.832 255.652 186.952 256.567 187.192 257.285C189.119 265.292 195.065 274.147 201.97 278.411C209.245 282.898 218.994 282.379 226.991 280.412C246.806 275.539 257.188 260.223 259.598 240.234C259.626 239.965 259.58 239.735 259.499 239.534C259.468 239.279 259.38 239.007 259.129 238.754C256.357 235.846 253.39 232.062 250.876 228.923C248.078 225.444 245.791 221.651 244.278 219.084C232.557 212.394 220.043 211.998 208.284 218.427Z" fill="#0099A9" stroke="black" stroke-miterlimit="10"/>
<path d="M187.543 248.854C187.543 248.854 188.55 242.74 190.907 237.951C191.473 236.71 218.087 274.753 225.343 280.558L216.75 281.627L187.543 248.854Z" fill="#00E6FB" stroke="black" stroke-miterlimit="10"/>
<path d="M196.472 228.871C196.472 228.871 196.774 227.363 204.027 221.175C204.593 219.933 237.495 255.631 245.303 270.736L241.656 273.9L237 276.619L196.472 228.871Z" fill="#00E6FB" stroke="black" stroke-miterlimit="10"/>
<path d="M225.579 214.052C225.579 214.052 219.006 213.667 213.929 216.035C212.654 216.527 248.762 246.421 255.157 255.643L257.267 251.031L258.473 246.42L225.579 214.052Z" fill="#00E6FB" stroke="black" stroke-width="1.01" stroke-miterlimit="10"/>
<path d="M107.132 198.766C106.064 199.107 104.817 199.358 103.393 199.52C102.02 199.707 100.627 199.774 99.2157 199.721C97.8299 199.619 96.6286 199.374 95.6118 198.986C94.5951 198.597 93.9474 197.987 93.6688 197.154C93.5422 196.775 93.4792 196.334 93.4799 195.831C93.506 195.277 93.5768 194.668 93.6921 194.002C93.8075 193.337 93.9865 192.609 94.2291 191.819C94.3696 191.355 94.5799 190.973 94.8601 190.674C95.1784 190.363 95.5856 190.128 96.0817 189.97C96.7686 189.75 97.4872 189.689 98.2372 189.784C98.9747 189.843 99.7311 189.957 100.507 190.129C101.269 190.263 102.045 190.372 102.833 190.455C103.647 190.489 104.454 190.378 105.256 190.122C105.981 189.89 106.49 189.644 106.783 189.383C107.114 189.11 107.228 188.821 107.127 188.518C107.026 188.215 106.81 188.012 106.479 187.908C106.187 187.792 105.793 187.75 105.297 187.782C104.827 187.765 104.286 187.791 103.676 187.86C103.065 187.929 102.41 187.991 101.711 188.047C101.011 188.102 100.28 188.126 99.5174 188.118C98.551 188.133 97.5783 188.067 96.5994 187.918C95.6079 187.731 94.6483 187.388 93.7207 186.888C92.8313 186.375 92.0058 185.675 91.244 184.786C90.5204 183.885 89.9117 182.696 89.4178 181.219C88.7592 179.249 88.6662 177.456 89.1389 175.838C89.6115 174.219 90.6307 172.783 92.1964 171.529C93.7621 170.275 95.8616 169.227 98.4948 168.386C99.1436 168.179 99.805 168.01 100.479 167.879C101.153 167.747 101.84 167.654 102.539 167.598C103.277 167.53 104.015 167.526 104.752 167.584C105.515 167.591 106.29 167.637 107.079 167.721C108.693 167.876 109.703 168.497 110.109 169.583C110.502 170.632 110.475 171.877 110.028 173.319C109.81 174.185 109.517 174.886 109.147 175.424C108.803 175.911 108.383 176.233 107.887 176.392C107.277 176.587 106.552 176.629 105.713 176.52C104.874 176.411 103.996 176.313 103.081 176.228C102.166 176.143 101.307 176.229 100.506 176.485C100.048 176.631 99.6661 176.815 99.3606 177.039C99.0806 177.212 98.896 177.418 98.8066 177.656C98.7047 177.856 98.6916 178.07 98.7676 178.297C98.9069 178.714 99.1545 179.012 99.5103 179.192C99.8916 179.322 100.337 179.389 100.845 179.394C101.392 179.387 101.99 179.343 102.638 179.262C103.325 179.169 104.05 179.063 104.813 178.945C105.856 178.78 106.95 178.703 108.094 178.715C109.264 178.677 110.389 178.821 111.469 179.147C112.55 179.472 113.534 180.08 114.423 180.97C115.312 181.86 116.042 183.157 116.612 184.862C117.688 188.081 117.417 190.872 115.799 193.233C114.219 195.581 111.33 197.426 107.132 198.766ZM135.261 189.094C133.43 189.679 131.592 189.868 129.748 189.66C127.943 189.44 126.234 188.874 124.62 187.964C122.994 187.016 121.565 185.775 120.333 184.24C119.102 182.704 118.144 180.914 117.461 178.869L114.364 169.608C114.073 168.737 113.877 167.898 113.776 167.092C113.663 166.248 113.886 165.464 114.447 164.74C114.995 163.978 116.127 163.323 117.845 162.775C119.6 162.215 120.91 162.09 121.774 162.401C122.664 162.662 123.318 163.166 123.737 163.912C124.155 164.659 124.51 165.468 124.802 166.339L127.879 175.543C128.17 176.414 128.57 177.104 129.078 177.612C129.624 178.109 130.259 178.43 130.984 178.576C131.734 178.672 132.529 178.586 133.369 178.318C134.208 178.05 134.876 177.648 135.373 177.112C135.869 176.576 136.188 175.95 136.329 175.235C136.47 174.519 136.401 173.745 136.122 172.911L133.007 163.594C132.716 162.723 132.52 161.884 132.419 161.078C132.306 160.234 132.529 159.45 133.09 158.726C133.65 158.002 134.789 157.366 136.506 156.817C138.262 156.257 139.572 156.132 140.436 156.443C141.326 156.704 141.98 157.208 142.398 157.955C142.817 158.701 143.166 159.491 143.444 160.325L149.694 179.016C149.973 179.85 150.163 180.669 150.263 181.476C150.364 182.282 150.134 183.047 149.574 183.771C149.013 184.495 147.874 185.131 146.157 185.679C144.897 186.081 143.855 186.246 143.028 186.175C142.253 186.129 141.642 185.946 141.198 185.627C140.741 185.27 140.404 184.896 140.188 184.503C139.998 184.061 139.853 183.688 139.751 183.385L140.819 183.359C140.819 183.359 140.73 183.597 140.551 184.073C140.36 184.511 140.041 185.074 139.596 185.762C139.175 186.399 138.608 187.041 137.895 187.688C137.208 188.284 136.33 188.753 135.261 189.094ZM169.647 178.557C168.083 179.057 166.321 179.284 164.363 179.238C162.43 179.142 160.498 178.732 158.566 178.008C156.622 177.245 154.862 176.088 153.288 174.537C151.713 172.985 150.514 170.979 149.691 168.517C148.88 166.093 148.648 163.819 148.994 161.697C149.328 159.536 150.036 157.612 151.119 155.925C152.24 154.226 153.558 152.799 155.073 151.645C156.613 150.44 158.147 149.595 159.673 149.107C161.123 148.644 162.433 148.394 163.603 148.356C164.773 148.318 165.765 148.378 166.579 148.538C167.379 148.659 167.964 148.766 168.333 148.858C169.248 149.069 170.131 149.374 170.983 149.773C171.86 150.121 172.463 150.788 172.792 151.773C172.957 152.265 173.032 152.807 173.019 153.398C172.993 153.952 172.877 154.617 172.673 155.395C171.996 157.917 170.97 159.397 169.596 159.836C168.985 160.031 168.42 160.107 167.898 160.063C167.364 159.982 166.862 159.87 166.392 159.727C165.922 159.583 165.426 159.49 164.905 159.447C164.409 159.354 163.836 159.411 163.188 159.618C162.424 159.862 161.782 160.276 161.26 160.862C160.737 161.448 160.393 162.124 160.227 162.89C160.048 163.617 160.091 164.379 160.357 165.174C160.623 165.97 161.055 166.629 161.652 167.151C162.249 167.673 162.916 168.026 163.653 168.209C164.428 168.381 165.179 168.351 165.904 168.12C166.438 167.949 166.858 167.752 167.163 167.529C167.507 167.293 167.755 167.088 167.908 166.914C168.048 166.702 168.137 166.589 168.176 166.577C168.609 166.103 169.01 165.661 169.379 165.25C169.786 164.826 170.238 164.535 170.734 164.377C171.383 164.17 172.133 164.203 172.985 164.476C173.824 164.711 174.84 165.225 176.035 166.017C177.165 166.746 177.914 167.534 178.282 168.381C178.675 169.178 178.731 170.04 178.45 170.968C178.157 171.858 177.57 172.821 176.692 173.856C176.602 173.968 176.278 174.324 175.717 174.922C175.183 175.47 174.419 176.091 173.426 176.785C172.433 177.479 171.174 178.07 169.647 178.557ZM188.782 172.134C187.065 172.682 185.762 172.826 184.872 172.565C183.969 172.266 183.309 171.744 182.89 170.997C182.497 170.2 182.161 169.385 181.883 168.552L175.69 150.031C175.398 149.159 175.202 148.321 175.102 147.514C174.988 146.67 175.212 145.886 175.772 145.162C176.333 144.439 177.472 143.803 179.189 143.254C180.868 142.718 182.127 142.568 182.966 142.803C183.843 143.026 184.453 143.397 184.796 143.917C185.126 144.398 185.341 144.79 185.443 145.093L184.413 145.045C184.413 145.045 184.508 144.826 184.7 144.387C184.891 143.949 185.197 143.411 185.617 142.774C186.076 142.125 186.649 141.502 187.337 140.905C188.062 140.296 188.94 139.827 189.971 139.498C190.314 139.388 190.747 139.292 191.268 139.21C191.815 139.077 192.4 138.995 193.023 138.964C193.684 138.92 194.314 138.971 194.911 139.115C195.547 139.248 196.1 139.512 196.569 139.907C197.078 140.289 197.452 140.84 197.693 141.56C198.326 143.454 198.444 145.198 198.048 146.791C197.69 148.373 196.843 149.377 195.507 149.803C194.782 150.035 194.254 150.161 193.924 150.183C193.58 150.167 193.32 150.145 193.142 150.118C192.989 150.041 192.805 149.995 192.589 149.98C192.398 149.915 192.074 149.956 191.616 150.102C191.043 150.285 190.534 150.531 190.089 150.841C189.669 151.101 189.312 151.425 189.02 151.811C188.765 152.186 188.605 152.593 188.541 153.033C188.464 153.435 188.495 153.844 188.635 154.261L192.339 165.34C192.618 166.173 192.814 167.012 192.927 167.856C193.04 168.7 192.817 169.484 192.256 170.208C191.696 170.932 190.538 171.574 188.782 172.134ZM221.585 162.354C218.722 163.268 216.147 163.587 213.859 163.311C211.558 162.998 209.549 162.298 207.834 161.21C206.106 160.085 204.665 158.743 203.51 157.183C202.355 155.624 201.505 154.03 200.961 152.401C199.96 149.409 199.748 146.563 200.324 143.864C200.899 141.165 202.155 138.794 204.091 136.751C206.026 134.708 208.52 133.199 211.573 132.224C213.939 131.469 216.089 131.202 218.021 131.423C219.954 131.645 221.631 132.178 223.054 133.023C224.516 133.856 225.716 134.857 226.655 136.024C227.595 137.191 228.254 138.343 228.634 139.479C229.356 141.638 229.373 143.456 228.684 144.934C227.996 146.411 226.812 147.418 225.133 147.954L212.939 151.846C213.295 152.404 213.777 152.837 214.387 153.145C215.023 153.403 215.747 153.549 216.561 153.583C217.362 153.579 218.182 153.442 219.022 153.174C219.862 152.906 220.593 152.631 221.217 152.348C221.827 152.027 222.336 151.718 222.744 151.42C223.189 151.11 223.577 150.819 223.908 150.546C224.277 150.26 224.602 150.031 224.882 149.857C225.187 149.634 225.493 149.474 225.798 149.376C226.485 149.157 227.191 149.183 227.915 149.455C228.64 149.727 229.383 150.244 230.145 151.007C230.577 151.414 230.926 151.827 231.192 152.244C231.446 152.625 231.636 153.004 231.763 153.383C232.143 154.519 231.982 155.618 231.282 156.68C230.619 157.73 229.473 158.725 227.844 159.664C226.228 160.641 224.142 161.538 221.585 162.354ZM211.154 146.506L217.565 144.459C218.099 144.289 218.443 144.053 218.596 143.753C218.787 143.44 218.807 143.057 218.655 142.602C218.49 142.11 218.198 141.742 217.779 141.499C217.398 141.243 216.934 141.119 216.387 141.125C215.828 141.094 215.204 141.189 214.517 141.408C213.602 141.7 212.863 142.145 212.303 142.744C211.73 143.304 211.348 143.929 211.156 144.619C210.99 145.259 210.989 145.888 211.154 146.506ZM207.491 132.899C206.804 133.118 206.117 133.023 205.431 132.613C204.745 132.203 204.015 131.472 203.241 130.42C202.213 128.988 201.725 127.844 201.777 126.989C201.816 126.096 202.453 125.222 203.688 124.367L213.195 117.936C213.882 117.717 214.568 117.812 215.254 118.222C215.94 118.632 216.651 119.369 217.388 120.433C218.428 121.778 218.91 122.903 218.833 123.808C218.755 124.713 218.137 125.581 216.979 126.411L207.491 132.899ZM252.219 152.574C249.357 153.488 246.782 153.807 244.493 153.531C242.192 153.218 240.184 152.518 238.469 151.43C236.741 150.305 235.3 148.963 234.145 147.403C232.99 145.844 232.14 144.25 231.595 142.621C230.595 139.629 230.383 136.783 230.958 134.084C231.534 131.385 232.79 129.014 234.725 126.971C236.661 124.928 239.155 123.419 242.208 122.444C244.574 121.689 246.724 121.422 248.656 121.644C250.589 121.865 252.266 122.398 253.689 123.244C255.15 124.077 256.351 125.077 257.29 126.244C258.23 127.411 258.889 128.563 259.269 129.699C259.991 131.858 260.008 133.676 259.319 135.154C258.63 136.631 257.447 137.638 255.767 138.174L243.574 142.067C243.93 142.624 244.412 143.057 245.022 143.365C245.658 143.623 246.382 143.769 247.196 143.803C247.997 143.799 248.817 143.663 249.657 143.394C250.496 143.126 251.228 142.851 251.851 142.568C252.462 142.247 252.971 141.938 253.379 141.64C253.824 141.331 254.212 141.039 254.543 140.766C254.912 140.48 255.237 140.251 255.517 140.078C255.822 139.854 256.128 139.694 256.433 139.596C257.12 139.377 257.826 139.403 258.55 139.675C259.274 139.947 260.018 140.464 260.78 141.227C261.211 141.634 261.56 142.047 261.827 142.465C262.081 142.845 262.271 143.224 262.398 143.603C262.778 144.739 262.617 145.838 261.916 146.9C261.254 147.95 260.108 148.945 258.479 149.884C256.863 150.861 254.776 151.758 252.219 152.574ZM241.789 136.726L248.2 134.679C248.734 134.509 249.078 134.273 249.231 133.973C249.422 133.66 249.442 133.277 249.29 132.822C249.125 132.33 248.833 131.962 248.414 131.719C248.033 131.463 247.569 131.339 247.022 131.346C246.462 131.315 245.839 131.409 245.152 131.628C244.236 131.92 243.498 132.366 242.938 132.964C242.365 133.524 241.983 134.149 241.791 134.839C241.625 135.479 241.624 136.108 241.789 136.726ZM278.866 143.942C277.798 144.283 276.551 144.534 275.127 144.695C273.754 144.882 272.361 144.949 270.95 144.897C269.564 144.794 268.363 144.549 267.346 144.161C266.329 143.773 265.681 143.162 265.403 142.329C265.276 141.95 265.213 141.509 265.214 141.006C265.24 140.453 265.311 139.843 265.426 139.178C265.541 138.512 265.72 137.784 265.963 136.994C266.104 136.53 266.314 136.149 266.594 135.85C266.912 135.538 267.32 135.304 267.816 135.145C268.503 134.926 269.221 134.864 269.971 134.96C270.709 135.018 271.465 135.133 272.24 135.305C273.003 135.438 273.779 135.547 274.567 135.631C275.381 135.664 276.188 135.553 276.99 135.298C277.715 135.066 278.224 134.82 278.517 134.559C278.848 134.285 278.962 133.997 278.861 133.694C278.76 133.391 278.544 133.187 278.213 133.083C277.921 132.967 277.527 132.925 277.031 132.958C276.561 132.94 276.02 132.966 275.41 133.035C274.799 133.104 274.144 133.167 273.445 133.222C272.745 133.278 272.014 133.302 271.251 133.294C270.285 133.309 269.312 133.242 268.333 133.094C267.342 132.907 266.382 132.564 265.455 132.063C264.565 131.551 263.74 130.85 262.978 129.962C262.254 129.061 261.646 127.872 261.152 126.395C260.493 124.425 260.4 122.631 260.873 121.013C261.345 119.395 262.365 117.959 263.93 116.704C265.496 115.45 267.596 114.403 270.229 113.562C270.878 113.355 271.539 113.186 272.213 113.054C272.887 112.923 273.574 112.829 274.273 112.774C275.011 112.706 275.749 112.701 276.486 112.759C277.249 112.767 278.024 112.813 278.813 112.897C280.427 113.052 281.437 113.673 281.843 114.759C282.236 115.807 282.209 117.052 281.762 118.495C281.544 119.36 281.251 120.062 280.881 120.599C280.537 121.086 280.117 121.409 279.621 121.567C279.011 121.762 278.286 121.805 277.447 121.696C276.608 121.586 275.73 121.489 274.815 121.404C273.9 121.319 273.041 121.404 272.24 121.66C271.782 121.806 271.4 121.991 271.095 122.214C270.815 122.388 270.63 122.593 270.541 122.831C270.439 123.032 270.426 123.245 270.502 123.473C270.641 123.889 270.888 124.187 271.244 124.367C271.626 124.497 272.071 124.565 272.579 124.57C273.126 124.563 273.724 124.519 274.372 124.438C275.059 124.344 275.784 124.239 276.547 124.121C277.59 123.955 278.684 123.879 279.828 123.891C280.998 123.853 282.123 123.996 283.203 124.322C284.284 124.648 285.268 125.256 286.157 126.146C287.046 127.036 287.776 128.333 288.345 130.037C289.422 133.257 289.151 136.047 287.533 138.408C285.953 140.757 283.064 142.601 278.866 143.942Z" fill="black"/>
<rect width="306.859" height="75.5283" transform="matrix(0.955291 -0.300963 0.312853 0.948084 4.41406 96.3965)" fill="#FF63D3"/>
<path d="M345.05 304.513L316.443 253.503L372.504 232.584L345.05 304.513Z" fill="#F3BBE3" stroke="black" stroke-width="3"/>
<path d="M70.3338 138.88C68.6127 139.407 67.3093 139.534 66.4238 139.261C65.5261 138.951 64.8725 138.419 64.463 137.666C64.0413 136.875 63.696 136.06 63.4273 135.222L53.9726 105.741C53.7039 104.903 53.5177 104.061 53.4142 103.214C53.3107 102.367 53.5428 101.585 54.1107 100.867C54.6664 100.112 55.824 99.4644 57.5833 98.9257L69.1149 95.3949C70.5683 94.9499 72.2341 94.7744 74.1125 94.8686C75.9786 94.9246 77.8529 95.3337 79.7354 96.0959C81.618 96.858 83.3305 98.0068 84.873 99.5423C86.4155 101.078 87.5899 103.103 88.3961 105.616C88.958 107.368 89.2156 109.088 89.1687 110.776C89.1601 112.452 88.841 114.076 88.2115 115.649C87.6079 117.173 86.7322 118.633 85.5841 120.03C84.4622 121.378 83.0687 122.599 81.4039 123.694L72.1672 126.523L73.9445 132.065C74.2132 132.902 74.3994 133.745 74.5029 134.592C74.6065 135.438 74.3804 136.239 73.8247 136.995C73.2568 137.713 72.0932 138.341 70.3338 138.88ZM93.9324 130.148C92.6266 131.97 91.4338 132.9 90.3538 132.938C89.2861 133.014 87.9342 132.466 86.2982 131.294L71.1612 120.242L82.6179 115.103L92.7919 122.466C93.9111 123.337 94.6884 124.123 95.124 124.827C95.5978 125.518 95.7343 126.271 95.5334 127.086C95.3326 127.9 94.7989 128.921 93.9324 130.148ZM68.8324 116.124L75.1432 114.192C75.4874 114.086 75.8707 113.906 76.293 113.652C76.7413 113.347 77.127 112.978 77.45 112.544C77.7608 112.073 77.9645 111.529 78.0613 110.914C78.1962 110.287 78.1354 109.574 77.8789 108.774C77.6224 107.974 77.2052 107.328 76.6273 106.836C76.0371 106.305 75.362 105.968 74.6018 105.824C73.8677 105.631 73.1182 105.651 72.3533 105.885L66.1572 107.783L68.8324 116.124ZM113.351 126.461C110.483 127.339 107.908 127.626 105.626 127.321C103.331 126.978 101.334 126.251 99.6338 125.14C97.9213 123.991 96.4972 122.628 95.3616 121.052C94.2259 119.476 93.3955 117.868 92.8702 116.231C91.9052 113.222 91.7256 110.369 92.3313 107.674C92.937 104.979 94.2179 102.621 96.1739 100.6C98.1299 98.5785 100.638 97.0996 103.698 96.1627C106.069 95.4366 108.218 95.1968 110.145 95.4433C112.073 95.6898 113.742 96.2454 115.153 97.1099C116.603 97.9628 117.79 98.9797 118.715 100.161C119.639 101.341 120.285 102.503 120.652 103.646C121.348 105.817 121.344 107.638 120.639 109.108C119.935 110.579 118.741 111.572 117.058 112.087L104.838 115.829C105.187 116.391 105.664 116.831 106.269 117.147C106.901 117.414 107.623 117.57 108.435 117.614C109.235 117.62 110.056 117.494 110.897 117.236C111.739 116.979 112.472 116.712 113.098 116.437C113.711 116.124 114.223 115.821 114.633 115.528C115.082 115.223 115.473 114.936 115.806 114.667C116.178 114.385 116.505 114.16 116.786 113.99C117.094 113.77 117.401 113.614 117.707 113.52C118.395 113.309 119.1 113.344 119.82 113.626C120.54 113.907 121.276 114.435 122.029 115.208C122.455 115.622 122.799 116.039 123.06 116.461C123.309 116.845 123.495 117.227 123.617 117.608C123.984 118.751 123.811 119.849 123.099 120.904C122.425 121.947 121.27 122.928 119.633 123.848C118.008 124.805 115.914 125.677 113.351 126.461ZM103.116 110.458L109.541 108.491C110.077 108.327 110.423 108.095 110.579 107.797C110.773 107.486 110.797 107.102 110.651 106.645C110.492 106.15 110.205 105.778 109.789 105.529C109.411 105.268 108.949 105.138 108.403 105.137C107.845 105.099 107.221 105.186 106.533 105.396C105.615 105.677 104.873 106.114 104.307 106.705C103.728 107.259 103.339 107.88 103.14 108.569C102.967 109.207 102.959 109.837 103.116 110.458ZM143.887 116.735C142.318 117.215 140.557 117.42 138.602 117.349C136.673 117.229 134.749 116.793 132.828 116.043C130.895 115.254 129.151 114.073 127.596 112.5C126.041 110.926 124.867 108.901 124.073 106.426C123.291 103.988 123.085 101.709 123.455 99.5875C123.813 97.4283 124.542 95.511 125.643 93.8354C126.782 92.1481 128.114 90.7363 129.64 89.5998C131.191 88.4136 132.732 87.5863 134.262 87.1179C135.716 86.6728 137.027 86.4387 138.195 86.4155C139.364 86.3923 140.353 86.4658 141.164 86.6359C141.962 86.7679 142.545 86.8823 142.912 86.979C143.824 87.2019 144.702 87.5185 145.548 87.9288C146.42 88.2894 147.014 88.9648 147.332 89.9551C147.491 90.4503 147.56 90.9938 147.54 91.5856C147.507 92.1393 147.385 92.8043 147.172 93.5806C146.467 96.0971 145.426 97.5662 144.049 97.9878C143.437 98.1751 142.871 98.2439 142.351 98.194C141.818 98.106 141.318 97.9872 140.85 97.8377C140.382 97.6882 139.888 97.5885 139.368 97.5385C138.874 97.4388 138.302 97.4885 137.652 97.6876C136.887 97.9218 136.24 98.3289 135.712 98.9089C135.184 99.4889 134.833 100.161 134.658 100.926C134.471 101.652 134.506 102.416 134.762 103.215C135.019 104.015 135.442 104.68 136.032 105.211C136.623 105.741 137.285 106.103 138.019 106.297C138.791 106.479 139.541 106.458 140.267 106.236C140.803 106.072 141.224 105.88 141.532 105.66C141.878 105.429 142.128 105.227 142.283 105.054C142.425 104.843 142.515 104.732 142.553 104.72C142.991 104.251 143.397 103.813 143.77 103.406C144.182 102.987 144.636 102.702 145.134 102.55C145.784 102.351 146.533 102.393 147.38 102.678C148.215 102.924 149.224 103.451 150.408 104.26C151.528 105.005 152.267 105.803 152.625 106.656C153.008 107.459 153.055 108.323 152.763 109.249C152.46 110.136 151.864 111.093 150.974 112.118C150.884 112.229 150.556 112.581 149.99 113.172C149.449 113.714 148.679 114.326 147.68 115.009C146.681 115.691 145.416 116.267 143.887 116.735ZM172.907 108.226C170.039 109.104 167.464 109.391 165.182 109.085C162.887 108.742 160.89 108.015 159.19 106.904C157.477 105.756 156.053 104.393 154.918 102.817C153.782 101.24 152.951 99.633 152.426 97.9952C151.461 94.9861 151.282 92.134 151.887 89.4387C152.493 86.7435 153.774 84.3853 155.73 82.3642C157.686 80.3431 160.194 78.8641 163.254 77.9273C165.625 77.2012 167.774 76.9614 169.701 77.2079C171.629 77.4544 173.298 78.0099 174.709 78.8745C176.159 79.7274 177.346 80.7442 178.271 81.9251C179.195 83.106 179.841 84.2678 180.208 85.4104C180.904 87.5815 180.9 89.4024 180.195 90.8729C179.491 92.3435 178.297 93.3364 176.614 93.8517L164.394 97.5934C164.743 98.156 165.22 98.5955 165.825 98.9121C166.457 99.1788 167.179 99.3342 167.991 99.3783C168.791 99.3844 169.612 99.2586 170.453 99.0009C171.294 98.7433 172.028 98.4768 172.654 98.2016C173.267 97.8882 173.779 97.5851 174.189 97.2922C174.638 96.9876 175.029 96.7006 175.362 96.4311C175.734 96.1499 176.061 95.9244 176.342 95.7545C176.65 95.5349 176.957 95.3782 177.263 95.2845C177.951 95.0737 178.656 95.109 179.376 95.3904C180.096 95.6718 180.832 96.1993 181.584 96.9729C182.011 97.3861 182.355 97.8037 182.616 98.2256C182.865 98.6095 183.051 98.9918 183.173 99.3727C183.54 100.515 183.367 101.614 182.655 102.669C181.981 103.711 180.826 104.693 179.189 105.612C177.564 106.57 175.47 107.441 172.907 108.226ZM162.672 92.2228L169.097 90.2554C169.633 90.0914 169.979 89.86 170.135 89.5612C170.329 89.2507 170.353 88.8669 170.207 88.4099C170.048 87.9147 169.76 87.5426 169.345 87.2934C168.967 87.0326 168.505 86.9021 167.959 86.902C167.401 86.8638 166.777 86.9501 166.089 87.1609C165.171 87.442 164.429 87.8784 163.862 88.47C163.284 89.0236 162.895 89.6447 162.696 90.3331C162.523 90.9718 162.515 91.6017 162.672 92.2228ZM203.925 98.0384C201.4 98.8113 199.118 99.0291 197.078 98.6917C195.025 98.3163 193.246 97.418 191.74 95.9967C190.272 94.5638 189.148 92.6284 188.366 90.1907L186.039 82.9348L184.699 83.4706C183.436 83.8571 182.409 83.7323 181.617 83.0964C180.813 82.4224 180.118 81.1713 179.532 79.343C178.957 77.5528 178.829 76.1699 179.146 75.1944C179.451 74.1808 180.254 73.4749 181.554 73.0767L182.796 72.8221L181.257 68.0228C180.976 67.1468 180.796 66.3235 180.716 65.553C180.625 64.7443 180.87 64.0002 181.45 63.3206C182.018 62.603 183.162 61.9807 184.883 61.4537C186.566 60.9384 187.856 60.8361 188.754 61.1468C189.64 61.4195 190.287 61.9323 190.697 62.6854C191.106 63.4384 191.445 64.2339 191.714 65.0719L193.161 69.5854C193.582 69.4566 194.175 69.2751 194.94 69.0409C195.731 68.7568 196.528 68.4919 197.331 68.2459C198.134 68 198.886 67.7907 199.587 67.618C200.275 67.4072 200.811 67.2432 201.193 67.1261L199.673 62.384C199.392 61.508 199.212 60.6847 199.133 59.9141C199.041 59.1055 199.286 58.3614 199.866 57.6818C200.434 56.9642 201.578 56.3418 203.299 55.8148C204.982 55.2996 206.253 55.2032 207.113 55.5256C207.998 55.7983 208.646 56.3111 209.055 57.0641C209.465 57.8172 209.804 58.6126 210.073 59.4506L211.557 64.0784L214.543 62.976C215.384 62.7184 216.212 62.5486 217.025 62.4668C217.877 62.3732 218.668 62.6121 219.397 63.1836C220.165 63.7433 220.83 64.8993 221.392 66.6514C221.941 68.3654 222.064 69.6662 221.761 70.5538C221.458 71.4415 220.929 72.0845 220.175 72.4827C219.446 72.8312 218.661 73.1343 217.82 73.3919L214.782 74.134L216.944 80.8758C217.127 81.4471 217.306 81.8734 217.48 82.1547C217.692 82.4243 217.938 82.6001 218.216 82.6822C218.482 82.7262 218.807 82.6897 219.189 82.5726C220.222 82.2564 221.145 82.0573 221.959 81.9755C222.811 81.8819 223.551 82.0945 224.179 82.6132C224.846 83.1201 225.424 84.1354 225.912 85.659C226.462 87.373 226.585 88.6738 226.282 89.5615C225.978 90.4491 225.444 91.073 224.677 91.4332C223.923 91.8315 223.144 92.1536 222.341 92.3996C219.816 93.1725 217.515 93.3961 215.436 93.0705C213.384 92.6951 211.624 91.7909 210.156 90.3579C208.688 88.925 207.564 86.9896 206.782 84.5519L204.455 77.2959C204.187 77.3779 203.83 77.5082 203.383 77.6868C202.975 77.8537 202.547 78.0265 202.1 78.2051C201.641 78.3457 201.202 78.4803 200.781 78.6092C200.169 78.7965 199.417 79.0058 198.525 79.2371C197.633 79.4684 196.932 79.6411 196.423 79.7552L198.585 86.497C198.768 87.0684 198.947 87.4947 199.121 87.776C199.334 88.0455 199.579 88.2214 199.858 88.3035C200.124 88.3475 200.448 88.3109 200.83 88.1938C201.825 87.8893 202.729 87.6961 203.543 87.6143C204.395 87.5207 205.135 87.7333 205.763 88.252C206.43 88.759 207.008 89.7742 207.496 91.2978C208.046 93.0118 208.169 94.3126 207.866 95.2003C207.562 96.0879 207.027 96.7119 206.261 97.0721C205.507 97.4703 204.728 97.7924 203.925 98.0384ZM245.966 85.856C243.097 86.7343 240.522 87.0209 238.24 86.7157C235.946 86.3725 233.948 85.6455 232.248 84.5347C230.535 83.3859 229.111 82.0233 227.976 80.4469C226.84 78.8704 226.01 77.2633 225.484 75.6255C224.519 72.6164 224.34 69.7643 224.946 67.069C225.551 64.3738 226.832 62.0156 228.788 59.9945C230.744 57.9734 233.252 56.4944 236.312 55.5575C238.683 54.8315 240.832 54.5917 242.76 54.8382C244.687 55.0847 246.356 55.6402 247.767 56.5048C249.217 57.3577 250.404 58.3745 251.329 59.5554C252.254 60.7363 252.899 61.8981 253.266 63.0407C253.962 65.2118 253.958 67.0326 253.254 68.5032C252.549 69.9738 251.355 70.9667 249.672 71.482L237.452 75.2237C237.801 75.7862 238.278 76.2258 238.883 76.5423C239.515 76.8091 240.237 76.9645 241.049 77.0086C241.849 77.0147 242.67 76.8888 243.511 76.6312C244.353 76.3736 245.086 76.1071 245.712 75.8319C246.326 75.5185 246.838 75.2154 247.248 74.9225C247.696 74.6179 248.087 74.3309 248.421 74.0614C248.792 73.7802 249.119 73.5547 249.401 73.3848C249.708 73.1652 250.015 73.0085 250.321 72.9148C251.009 72.704 251.714 72.7393 252.434 73.0207C253.154 73.3021 253.891 73.8296 254.643 74.6032C255.069 75.0164 255.413 75.434 255.675 75.8559C255.924 76.2398 256.109 76.6221 256.231 77.003C256.598 78.1457 256.425 79.2443 255.713 80.2989C255.04 81.3417 253.884 82.3229 252.247 83.2425C250.622 84.2002 248.528 85.0714 245.966 85.856ZM235.73 69.8531L242.156 67.8857C242.691 67.7217 243.037 67.4903 243.193 67.1915C243.388 66.881 243.412 66.4972 243.265 66.0402C243.106 65.545 242.819 65.1729 242.403 64.9237C242.025 64.6629 241.563 64.5324 241.017 64.5323C240.459 64.4941 239.836 64.5804 239.147 64.7912C238.229 65.0723 237.487 65.5087 236.921 66.1003C236.342 66.6539 235.953 67.275 235.754 67.9634C235.581 68.6021 235.573 69.232 235.73 69.8531ZM272.673 77.5531C271.602 77.881 270.354 78.1165 268.93 78.2598C267.557 78.4294 266.165 78.479 264.757 78.4083C263.374 78.2879 262.177 78.0269 261.166 77.6253C260.155 77.2238 259.516 76.604 259.247 75.766C259.125 75.3851 259.067 74.9427 259.073 74.4388C259.106 73.8851 259.183 73.2757 259.306 72.6107C259.429 71.9457 259.616 71.2191 259.867 70.4311C260.013 69.9682 260.227 69.5889 260.51 69.293C260.832 68.9855 261.241 68.7556 261.738 68.6033C262.427 68.3925 263.145 68.34 263.893 68.4456C264.628 68.5131 265.382 68.6378 266.155 68.8196C266.915 68.9633 267.688 69.0821 268.474 69.176C269.286 69.2202 270.094 69.1193 270.897 68.8733C271.624 68.6508 272.135 68.4107 272.43 68.1529C272.764 67.8835 272.882 67.5964 272.784 67.2917C272.687 66.987 272.473 66.7804 272.144 66.6719C271.854 66.5517 271.461 66.5048 270.965 66.531C270.496 66.5075 269.956 66.5264 269.345 66.5878C268.735 66.6492 268.08 66.7033 267.381 66.75C266.682 66.7967 265.952 66.8112 265.19 66.7935C264.225 66.7962 263.254 66.7169 262.278 66.5556C261.29 66.3561 260.336 66 259.416 65.4871C258.533 64.9625 257.717 64.2504 256.966 63.3508C256.254 62.4395 255.66 61.2411 255.183 59.7556C254.548 57.775 254.476 55.9776 254.966 54.3634C255.456 52.7492 256.491 51.3241 258.068 50.0881C259.646 48.8521 261.754 47.83 264.394 47.022C265.044 46.8229 265.706 46.6619 266.381 46.539C267.055 46.4161 267.742 46.3313 268.441 46.2845C269.179 46.2261 269.915 46.2306 270.651 46.2982C271.413 46.3159 272.187 46.3717 272.973 46.4657C274.583 46.6418 275.585 47.2763 275.977 48.3692C276.358 49.4239 276.316 50.6705 275.854 52.1089C275.627 52.9732 275.326 53.6718 274.951 54.205C274.602 54.6883 274.179 55.0061 273.681 55.1583C273.069 55.3457 272.345 55.3793 271.508 55.259C270.672 55.1387 269.797 55.0301 268.884 54.9332C267.971 54.8363 267.113 54.9109 266.309 55.1568C265.85 55.2973 265.467 55.4774 265.16 55.6971C264.878 55.867 264.691 56.0705 264.599 56.3078C264.495 56.507 264.48 56.7209 264.553 56.9494C264.687 57.3684 264.931 57.6702 265.284 57.8549C265.664 57.9897 266.107 58.0631 266.615 58.0749C267.161 58.075 267.759 58.0385 268.407 57.9654C269.094 57.8806 269.819 57.784 270.582 57.6758C271.626 57.5237 272.719 57.4609 273.861 57.4875C275.03 57.4643 276.152 57.6228 277.227 57.9628C278.302 58.3029 279.278 58.9242 280.156 59.8268C281.033 60.7293 281.747 62.0376 282.297 63.7516C283.335 66.9892 283.033 69.7797 281.39 72.1231C279.786 74.4549 276.88 76.2649 272.673 77.5531Z" fill="black"/>
</svg>
