<svg width="141" height="142" viewBox="0 0 141 142" fill="none" xmlns="http://www.w3.org/2000/svg">
<mask id="mask0_849_941" style="mask-type:luminance" maskUnits="userSpaceOnUse" x="0" y="0" width="141" height="142">
<path d="M141 0H0V142H141V0Z" fill="white"/>
</mask>
<g mask="url(#mask0_849_941)">
<g filter="url(#filter0_d_849_941)">
<path d="M69.255 45.4635C69.255 45.4635 70.5266 8.53507 63.2109 2.4384C63.2109 2.4384 71.5717 -1.39379 75.6998 0.992621C79.8104 3.37903 73.8012 45.777 73.8012 45.777C73.8012 45.777 71.5368 48.6512 69.255 45.4635Z" fill="#865F1A" stroke="black" stroke-width="0.5" stroke-miterlimit="10"/>
<path d="M91.4454 26.0059C90.261 26.0059 88.3972 26.3543 84.095 26.6504C75.0201 27.2775 65.9627 27.2775 56.9052 26.6504C52.6029 26.3543 50.7392 26.0756 49.5548 26.0059C33.5475 24.9434 0.435547 49.4694 0.435547 83.8546C0.435547 115.801 34.9932 141.564 55.0241 141.564C56.8704 141.564 58.6819 141.354 60.4585 140.954C67.06 139.456 73.9402 139.456 80.5417 140.954C82.3183 141.354 84.1298 141.564 85.9761 141.564C106.007 141.564 140.565 115.801 140.565 83.8546C140.565 51.908 118.566 26.0233 91.4454 26.0233V26.0059Z" fill="#C1272D" stroke="#453C4B" stroke-width="0.5" stroke-miterlimit="10"/>
<path d="M99.1451 59.9562C100.12 58.7369 101.096 57.5175 102.071 56.2982C102.21 56.1066 102.141 55.8105 101.949 55.6885C101.74 55.5492 101.496 55.6189 101.339 55.8105C100.364 57.0298 99.3891 58.2491 98.4131 59.4685C98.2741 59.6601 98.3431 59.9562 98.5351 60.0781C98.7441 60.2175 98.9881 60.1478 99.1451 59.9562Z" fill="black"/>
<path d="M96.706 57.2387L99.145 54.0336C99.284 53.842 99.214 53.5633 99.023 53.4239C98.814 53.2846 98.553 53.3542 98.413 53.5459L95.9747 56.751C95.8353 56.9426 95.905 57.2213 96.097 57.3606C96.306 57.5 96.567 57.4303 96.706 57.2387Z" fill="black"/>
<path d="M101.897 72.4961C101.949 63.2416 96.9916 55.7114 90.8253 55.6769C84.6591 55.6425 79.6185 63.1169 79.5668 72.3714C79.5151 81.626 84.4719 89.1562 90.6381 89.1906C96.8046 89.2251 101.845 81.7507 101.897 72.4961Z" fill="white" stroke="black" stroke-width="0.25" stroke-miterlimit="10"/>
<path d="M100.295 78.5122C100.328 72.5958 96.152 67.7761 90.9669 67.7472C85.7819 67.7182 81.5518 72.4909 81.5187 78.4073C81.4857 84.3237 85.6621 89.1433 90.8471 89.1723C96.0319 89.2012 100.262 84.4285 100.295 78.5122Z" fill="black" stroke="black" stroke-width="0.25" stroke-miterlimit="10"/>
<path d="M43.4939 59.1378L40.6024 55.4449C40.4631 55.2533 40.167 55.2533 39.9928 55.3927C39.8012 55.5494 39.8012 55.8281 39.9406 56.0023L42.832 59.6952C42.9713 59.8868 43.2674 59.8868 43.4416 59.7474C43.6332 59.5906 43.6332 59.3119 43.4939 59.1378Z" fill="black"/>
<path d="M45.9495 56.4203C45.1483 55.3403 44.347 54.2603 43.5458 53.1803C43.4065 52.9887 43.1103 52.9887 42.9362 53.1281C42.7446 53.2848 42.7446 53.5461 42.8839 53.7377C43.6851 54.8177 44.4864 55.8977 45.2876 56.9777C45.427 57.1693 45.7231 57.1693 45.8973 57.0299C46.0889 56.8732 46.0888 56.6119 45.9495 56.4203Z" fill="black"/>
<path d="M62.214 72.2705C62.264 63.0159 57.3059 55.4866 51.1397 55.4532C44.9736 55.4198 39.9343 62.8951 39.8842 72.1497C39.8341 81.4042 44.7922 88.9336 50.9584 88.9669C57.1246 89.0003 62.1639 81.5251 62.214 72.2705Z" fill="white" stroke="black" stroke-width="0.25" stroke-miterlimit="10"/>
<path d="M60.2191 78.2836C60.2522 72.3673 56.0757 67.5476 50.8907 67.5187C45.7057 67.4897 41.4757 72.2624 41.4426 78.1788C41.4096 84.0951 45.5861 88.9148 50.7711 88.9438C55.956 88.9727 60.1861 84.2 60.2191 78.2836Z" fill="black" stroke="black" stroke-width="0.25" stroke-miterlimit="10"/>
<path d="M86.098 102.79C88.3101 99.3582 88.5365 95.9441 88.5191 94.1848L53.526 93.9932C53.4389 95.6306 53.5086 98.8008 55.3724 102.18C55.7381 102.842 59.6398 109.618 68.0876 110.855C75.769 111.987 82.7885 107.911 86.098 102.772V102.79Z" fill="white"/>
<path d="M86.4639 103.034C88.1186 100.351 88.9721 97.3724 88.9547 94.2195C88.9547 93.9931 88.8153 93.7492 88.5541 93.7492C76.8839 93.6796 65.2312 93.6099 53.561 93.5576C53.3346 93.5576 53.1081 93.7144 53.0907 93.9583C52.7772 100.682 56.7137 106.604 62.6359 109.601C70.9095 113.764 81.3778 110.663 86.4465 103.034C86.76 102.563 86.0459 102.076 85.7323 102.546C80.7333 110.053 70.2998 112.928 62.3397 108.451C57.0969 105.507 53.6655 100.142 53.9616 94.0279L53.4913 94.4286C65.1615 94.4982 76.8142 94.5679 88.4844 94.6202L88.0838 94.1499C88.1012 97.1459 87.3174 99.9678 85.7498 102.528C85.4536 102.999 86.1678 103.504 86.4639 103.016V103.034Z" fill="black"/>
</g>
</g>
<defs>
<filter id="filter0_d_849_941" x="-3.81445" y="-0.0400391" width="148.63" height="149.854" filterUnits="userSpaceOnUse" color-interpolation-filters="sRGB">
<feFlood flood-opacity="0" result="BackgroundImageFix"/>
<feColorMatrix in="SourceAlpha" type="matrix" values="0 0 0 0 0 0 0 0 0 0 0 0 0 0 0 0 0 0 127 0" result="hardAlpha"/>
<feOffset dy="4"/>
<feGaussianBlur stdDeviation="2"/>
<feComposite in2="hardAlpha" operator="out"/>
<feColorMatrix type="matrix" values="0 0 0 0 0 0 0 0 0 0 0 0 0 0 0 0 0 0 0.25 0"/>
<feBlend mode="normal" in2="BackgroundImageFix" result="effect1_dropShadow_849_941"/>
<feBlend mode="normal" in="SourceGraphic" in2="effect1_dropShadow_849_941" result="shape"/>
</filter>
</defs>
</svg>
