<svg width="122" height="142" viewBox="0 0 122 142" fill="none" xmlns="http://www.w3.org/2000/svg">
<g filter="url(#filter0_d_849_957)">
<mask id="mask0_849_957" style="mask-type:luminance" maskUnits="userSpaceOnUse" x="4" y="0" width="114" height="134">
<path d="M118 0H4V134H118V0Z" fill="white"/>
</mask>
<g mask="url(#mask0_849_957)">
<g filter="url(#filter1_d_849_957)">
<path d="M17.5415 37.4143C22.7812 33.2709 29.4725 30.0972 37.2259 28.1753C60.6455 22.3216 90.1545 21.9866 107.768 37.3614C124.709 52.1543 117.008 73.7001 107.839 89.3922C102.918 97.8024 96.7927 105.825 89.9244 113.424C83.2862 120.759 74.8601 131.637 62.1679 133.577C57.4769 134.282 52.5204 133.048 48.5551 131.003C26.9943 119.93 12.8151 97.2911 7.34519 79.0248C4.76072 70.4382 3.76941 61.4461 6.46009 52.9477C8.3719 46.9001 12.2132 41.6459 17.5592 37.4143H17.5415Z" fill="#D70D11" stroke="black" stroke-width="0.5" stroke-miterlimit="10"/>
<path d="M34.1103 37.097C34.1103 37.097 27.5606 34.082 15.9127 39.5654C15.9127 39.5654 14.4435 36.9912 22.5155 33.888C22.5155 33.888 11.2394 28.0872 5.34473 30.3441C5.34473 30.3441 15.2224 22.7449 27.5429 25.7951L20.4975 20.8406C20.4975 20.8406 30.8708 17.8609 47.5283 26.9412C47.5283 26.9412 44.3065 18.6543 37.5798 15.5864C37.5798 15.5864 47.8115 15.2162 53.0866 18.6367C53.0866 18.6367 50.8385 14.2641 54.963 8.67486C59.0699 3.08565 63.2475 0.282227 63.2475 0.282227C63.2475 0.282227 69.4786 6.03012 66.2922 12.5538L63.1236 19.0775C63.1236 19.0775 68.682 9.5917 76.9842 9.09802C76.9842 9.09802 71.2842 19.2185 74.4705 20.9817C77.6745 22.7449 83.3922 13.8233 96.3323 15.3396C96.3323 15.3396 85.3395 22.2335 85.8174 25.6717C85.8174 25.6717 99.0584 21.3872 111.556 29.533C111.556 29.533 87.5876 27.8051 85.1978 32.548C85.1978 32.548 97.359 35.2456 99.1469 43.9028C99.1469 43.9028 78.6658 34.5756 69.7087 34.2406C60.7516 33.9056 53.7947 49.6859 53.7947 49.6859C53.7947 49.6859 46.2714 43.6559 53.5823 34.5228C53.5823 34.5228 34.2696 41.9104 32.7118 49.0159C32.7118 49.0159 28.5165 42.457 34.0926 37.097H34.1103Z" fill="#548B37" stroke="black" stroke-width="0.5" stroke-miterlimit="10"/>
<path d="M87.6412 59.6479C88.6325 58.4137 89.6238 57.1795 90.6151 55.9453C90.7567 55.7513 90.6859 55.4516 90.4912 55.3281C90.2788 55.1871 90.0309 55.2576 89.8716 55.4516C88.8803 56.6858 87.889 57.92 86.8977 59.1542C86.7561 59.3481 86.8269 59.6479 87.0216 59.7713C87.2341 59.9124 87.4819 59.8418 87.6412 59.6479Z" fill="black"/>
<path d="M85.1812 56.8974L87.6595 53.6532C87.8011 53.4592 87.7303 53.1771 87.5356 53.0361C87.3232 52.895 87.0576 52.9655 86.916 53.1595L84.4378 56.4037C84.2962 56.5976 84.367 56.8797 84.5617 57.0208C84.7741 57.1618 85.0396 57.0913 85.1812 56.8974Z" fill="black"/>
<path d="M90.4673 72.3342C90.5198 62.9667 85.4823 55.3446 79.2156 55.3097C72.949 55.2749 67.8263 62.8404 67.7738 72.2079C67.7213 81.5754 72.7588 89.1975 79.0254 89.2324C85.292 89.2672 90.4147 81.7016 90.4673 72.3342Z" fill="white" stroke="black" stroke-width="0.25" stroke-miterlimit="10"/>
<path d="M88.8218 78.4238C88.8554 72.4353 84.6109 67.5568 79.3415 67.5275C74.072 67.4982 69.7731 72.3291 69.7395 78.3177C69.7059 84.3063 73.9504 89.1847 79.2199 89.214C84.4893 89.2433 88.7882 84.4124 88.8218 78.4238Z" fill="black" stroke="black" stroke-width="0.25" stroke-miterlimit="10"/>
<path d="M31.1022 58.8185L28.1637 55.0806C28.022 54.8867 27.7211 54.8867 27.5441 55.0277C27.3494 55.1864 27.3494 55.4685 27.491 55.6448L30.4295 59.3827C30.5711 59.5767 30.872 59.5767 31.0491 59.4356C31.2438 59.277 31.2438 58.9948 31.1022 58.8185Z" fill="black"/>
<path d="M33.5977 56.0681C32.7834 54.975 31.9692 53.8818 31.1549 52.7886C31.0133 52.5947 30.7123 52.5947 30.5353 52.7357C30.3406 52.8944 30.3406 53.1589 30.4822 53.3529C31.2965 54.446 32.1108 55.5392 32.9251 56.6323C33.0667 56.8263 33.3676 56.8263 33.5446 56.6852C33.7393 56.5265 33.7393 56.2621 33.5977 56.0681Z" fill="black"/>
<path d="M50.1236 72.1242C50.1745 62.7567 45.1356 55.1355 38.869 55.1017C32.6024 55.0679 27.481 62.6344 27.4301 72.0019C27.3792 81.3693 32.4181 88.9906 38.6847 89.0243C44.9513 89.0581 50.0727 81.4916 50.1236 72.1242Z" fill="white" stroke="black" stroke-width="0.25" stroke-miterlimit="10"/>
<path d="M48.0923 78.2099C48.1259 72.2214 43.8814 67.3429 38.612 67.3136C33.3425 67.2843 29.0436 72.1152 29.01 78.1038C28.9764 84.0923 33.2209 88.9708 38.4904 89.0001C43.7598 89.0294 48.0587 84.1985 48.0923 78.2099Z" fill="black" stroke="black" stroke-width="0.25" stroke-miterlimit="10"/>
<path d="M74.4004 103.004C76.6485 99.5301 76.8786 96.0743 76.8609 94.2936L41.2979 94.0996C41.2094 95.757 41.2802 98.9659 43.1743 102.386C43.546 103.056 47.5112 109.915 56.0967 111.167C63.9032 112.313 71.037 108.187 74.4004 102.986V103.004Z" fill="white"/>
<path d="M74.7724 103.251C76.4541 100.535 77.3215 97.5206 77.3038 94.3292C77.3038 94.1 77.1622 93.8532 76.8966 93.8532C65.0364 93.7827 53.1938 93.7121 41.3336 93.6592C41.1035 93.6592 40.8733 93.8179 40.8556 94.0648C40.537 100.87 44.5376 106.865 50.5563 109.898C58.9646 114.112 69.6035 110.973 74.7547 103.251C75.0733 102.774 74.3476 102.281 74.0289 102.757C68.9485 110.356 58.3451 113.265 50.2553 108.734C44.9271 105.754 41.4398 100.324 41.7407 94.1353L41.2628 94.5408C53.123 94.6113 64.9656 94.6819 76.8258 94.7348L76.4187 94.2587C76.4364 97.2913 75.6398 100.147 74.0466 102.739C73.7457 103.215 74.4715 103.727 74.7724 103.233V103.251Z" fill="black"/>
</g>
</g>
</g>
<defs>
<filter id="filter0_d_849_957" x="-4" y="0" width="130" height="150" filterUnits="userSpaceOnUse" color-interpolation-filters="sRGB">
<feFlood flood-opacity="0" result="BackgroundImageFix"/>
<feColorMatrix in="SourceAlpha" type="matrix" values="0 0 0 0 0 0 0 0 0 0 0 0 0 0 0 0 0 0 127 0" result="hardAlpha"/>
<feOffset dy="4"/>
<feGaussianBlur stdDeviation="2"/>
<feComposite in2="hardAlpha" operator="out"/>
<feColorMatrix type="matrix" values="0 0 0 0 0 0 0 0 0 0 0 0 0 0 0 0 0 0 0.25 0"/>
<feBlend mode="normal" in2="BackgroundImageFix" result="effect1_dropShadow_849_957"/>
<feBlend mode="normal" in="SourceGraphic" in2="effect1_dropShadow_849_957" result="shape"/>
</filter>
<filter id="filter1_d_849_957" x="-0.164062" y="-0.0351562" width="122.21" height="142.062" filterUnits="userSpaceOnUse" color-interpolation-filters="sRGB">
<feFlood flood-opacity="0" result="BackgroundImageFix"/>
<feColorMatrix in="SourceAlpha" type="matrix" values="0 0 0 0 0 0 0 0 0 0 0 0 0 0 0 0 0 0 127 0" result="hardAlpha"/>
<feOffset dy="4"/>
<feGaussianBlur stdDeviation="2"/>
<feComposite in2="hardAlpha" operator="out"/>
<feColorMatrix type="matrix" values="0 0 0 0 0 0 0 0 0 0 0 0 0 0 0 0 0 0 0.25 0"/>
<feBlend mode="normal" in2="BackgroundImageFix" result="effect1_dropShadow_849_957"/>
<feBlend mode="normal" in="SourceGraphic" in2="effect1_dropShadow_849_957" result="shape"/>
</filter>
</defs>
</svg>
